{
   "results" : [
      {
         "address_components" : [
            {
               "long_name" : "1",
               "short_name" : "1",
               "types" : [ "street_number" ]
            },
            {
               "long_name" : "Østergade",
               "short_name" : "Østergade",
               "types" : [ "route" ]
            },
            {
               "long_name" : "Hadsund",
               "short_name" : "Hadsund",
               "types" : [ "locality", "political" ]
            },
            {
               "long_name" : "Denmark",
               "short_name" : "DK",
               "types" : [ "country", "political" ]
            },
            {
               "long_name" : "9560",
               "short_name" : "9560",
               "types" : [ "postal_code" ]
            }
         ],
         "formatted_address" : "Østergade 1, 9560 Hadsund, Denmark",
         "geometry" : {
            "location" : {
               "lat" : 56.718972,
               "lng" : 10.1154857
            },
            "location_type" : "ROOFTOP",
            "viewport" : {
               "northeast" : {
                  "lat" : 56.7203209802915,
                  "lng" : 10.1168346802915
               },
               "southwest" : {
                  "lat" : 56.7176230197085,
                  "lng" : 10.1141367197085
               }
            }
         },
         "place_id" : "ChIJWQQb2HWwTkYRhHJLnKjFnu0",
         "types" : [ "street_address" ]
      }
   ],
   "status" : "OK"
}
