{
   "results" : [
      {
         "address_components" : [
            {
               "long_name" : "51",
               "short_name" : "51",
               "types" : [ "street_number" ]
            },
            {
               "long_name" : "Flæsketorvet",
               "short_name" : "Flæsketorvet",
               "types" : [ "route" ]
            },
            {
               "long_name" : "København V",
               "short_name" : "København V",
               "types" : [ "political", "sublocality", "sublocality_level_1" ]
            },
            {
               "long_name" : "København",
               "short_name" : "København",
               "types" : [ "locality", "political" ]
            },
            {
               "long_name" : "Denmark",
               "short_name" : "DK",
               "types" : [ "country", "political" ]
            },
            {
               "long_name" : "1711",
               "short_name" : "1711",
               "types" : [ "postal_code" ]
            }
         ],
         "formatted_address" : "Flæsketorvet 51, 1711 København V, Denmark",
         "geometry" : {
            "location" : {
               "lat" : 55.6679895,
               "lng" : 12.5606735
            },
            "location_type" : "ROOFTOP",
            "viewport" : {
               "northeast" : {
                  "lat" : 55.6693384802915,
                  "lng" : 12.5620224802915
               },
               "southwest" : {
                  "lat" : 55.6666405197085,
                  "lng" : 12.5593245197085
               }
            }
         },
         "partial_match" : true,
         "place_id" : "ChIJ31fvs3NTUkYRuuRsK3HpV4Y",
         "types" : [ "street_address" ]
      }
   ],
   "status" : "OK"
}
