{
   "results" : [
      {
         "address_components" : [
            {
               "long_name" : "3",
               "short_name" : "3",
               "types" : [ "street_number" ]
            },
            {
               "long_name" : "Feldsingvej",
               "short_name" : "Feldsingvej",
               "types" : [ "route" ]
            },
            {
               "long_name" : "Skjern",
               "short_name" : "Skjern",
               "types" : [ "locality", "political" ]
            },
            {
               "long_name" : "Denmark",
               "short_name" : "DK",
               "types" : [ "country", "political" ]
            },
            {
               "long_name" : "6900",
               "short_name" : "6900",
               "types" : [ "postal_code" ]
            }
         ],
         "formatted_address" : "Feldsingvej 3, 6900 Skjern, Denmark",
         "geometry" : {
            "location" : {
               "lat" : 55.98885199999999,
               "lng" : 8.692556999999999
            },
            "location_type" : "ROOFTOP",
            "viewport" : {
               "northeast" : {
                  "lat" : 55.99020098029149,
                  "lng" : 8.693905980291502
               },
               "southwest" : {
                  "lat" : 55.98750301970849,
                  "lng" : 8.691208019708498
               }
            }
         },
         "place_id" : "ChIJp8wwDq2uS0YR7G0Ra7H6kEI",
         "types" : [ "street_address" ]
      }
   ],
   "status" : "OK"
}
