{
   "results" : [
      {
         "address_components" : [
            {
               "long_name" : "19",
               "short_name" : "19",
               "types" : [ "street_number" ]
            },
            {
               "long_name" : "Skindergade",
               "short_name" : "Skindergade",
               "types" : [ "route" ]
            },
            {
               "long_name" : "København K",
               "short_name" : "København K",
               "types" : [ "political", "sublocality", "sublocality_level_1" ]
            },
            {
               "long_name" : "København",
               "short_name" : "København",
               "types" : [ "locality", "political" ]
            },
            {
               "long_name" : "Denmark",
               "short_name" : "DK",
               "types" : [ "country", "political" ]
            },
            {
               "long_name" : "1159",
               "short_name" : "1159",
               "types" : [ "postal_code" ]
            }
         ],
         "formatted_address" : "Skindergade 19, 1159 København K, Denmark",
         "geometry" : {
            "location" : {
               "lat" : 55.68002070000001,
               "lng" : 12.5751099
            },
            "location_type" : "ROOFTOP",
            "viewport" : {
               "northeast" : {
                  "lat" : 55.68136968029151,
                  "lng" : 12.5764588802915
               },
               "southwest" : {
                  "lat" : 55.67867171970851,
                  "lng" : 12.5737609197085
               }
            }
         },
         "partial_match" : true,
         "place_id" : "ChIJlyGmXxBTUkYRQE0YR3_1rJE",
         "types" : [ "street_address" ]
      }
   ],
   "status" : "OK"
}
