{
   "results" : [
      {
         "address_components" : [
            {
               "long_name" : "16",
               "short_name" : "16",
               "types" : [ "street_number" ]
            },
            {
               "long_name" : "Usserød Kongevej",
               "short_name" : "Usserød Kongevej",
               "types" : [ "route" ]
            },
            {
               "long_name" : "Hørsholm",
               "short_name" : "Hørsholm",
               "types" : [ "locality", "political" ]
            },
            {
               "long_name" : "Denmark",
               "short_name" : "DK",
               "types" : [ "country", "political" ]
            },
            {
               "long_name" : "2970",
               "short_name" : "2970",
               "types" : [ "postal_code" ]
            }
         ],
         "formatted_address" : "Usserød Kongevej 16, 2970 Hørsholm, Denmark",
         "geometry" : {
            "location" : {
               "lat" : 55.8828352,
               "lng" : 12.4985107
            },
            "location_type" : "ROOFTOP",
            "viewport" : {
               "northeast" : {
                  "lat" : 55.88418418029149,
                  "lng" : 12.4998596802915
               },
               "southwest" : {
                  "lat" : 55.88148621970849,
                  "lng" : 12.4971617197085
               }
            }
         },
         "place_id" : "ChIJGfJTGFhIUkYRGhx6toNWLXU",
         "types" : [ "street_address" ]
      }
   ],
   "status" : "OK"
}
