{
   "results" : [
      {
         "address_components" : [
            {
               "long_name" : "89A",
               "short_name" : "89A",
               "types" : [ "street_number" ]
            },
            {
               "long_name" : "Gjellerupvej",
               "short_name" : "Gjellerupvej",
               "types" : [ "route" ]
            },
            {
               "long_name" : "Åbyhøj",
               "short_name" : "Åbyhøj",
               "types" : [ "political", "sublocality", "sublocality_level_1" ]
            },
            {
               "long_name" : "Aarhus",
               "short_name" : "Aarhus",
               "types" : [ "locality", "political" ]
            },
            {
               "long_name" : "Denmark",
               "short_name" : "DK",
               "types" : [ "country", "political" ]
            },
            {
               "long_name" : "8230",
               "short_name" : "8230",
               "types" : [ "postal_code" ]
            }
         ],
         "formatted_address" : "Gjellerupvej 89A, 8230 Åbyhøj, Denmark",
         "geometry" : {
            "location" : {
               "lat" : 56.146107,
               "lng" : 10.148828
            },
            "location_type" : "ROOFTOP",
            "viewport" : {
               "northeast" : {
                  "lat" : 56.1474559802915,
                  "lng" : 10.1501769802915
               },
               "southwest" : {
                  "lat" : 56.1447580197085,
                  "lng" : 10.1474790197085
               }
            }
         },
         "place_id" : "ChIJUyWH3lIVTEYRHhQdJXy_fgk",
         "types" : [ "street_address" ]
      }
   ],
   "status" : "OK"
}
