{
   "results" : [
      {
         "address_components" : [
            {
               "long_name" : "Salling",
               "short_name" : "Salling",
               "types" : [ "premise" ]
            },
            {
               "long_name" : "27",
               "short_name" : "27",
               "types" : [ "street_number" ]
            },
            {
               "long_name" : "Søndergade",
               "short_name" : "Søndergade",
               "types" : [ "route" ]
            },
            {
               "long_name" : "Aarhus C",
               "short_name" : "Aarhus C",
               "types" : [ "political", "sublocality", "sublocality_level_1" ]
            },
            {
               "long_name" : "Aarhus",
               "short_name" : "Aarhus",
               "types" : [ "locality", "political" ]
            },
            {
               "long_name" : "Denmark",
               "short_name" : "DK",
               "types" : [ "country", "political" ]
            },
            {
               "long_name" : "8000",
               "short_name" : "8000",
               "types" : [ "postal_code" ]
            }
         ],
         "formatted_address" : "Salling, Søndergade 27, 8000 Aarhus C, Denmark",
         "geometry" : {
            "bounds" : {
               "northeast" : {
                  "lat" : 56.15484379999999,
                  "lng" : 10.2078161
               },
               "southwest" : {
                  "lat" : 56.1540113,
                  "lng" : 10.2065184
               }
            },
            "location" : {
               "lat" : 56.1543098,
               "lng" : 10.2072271
            },
            "location_type" : "ROOFTOP",
            "viewport" : {
               "northeast" : {
                  "lat" : 56.1557765302915,
                  "lng" : 10.2085161802915
               },
               "southwest" : {
                  "lat" : 56.1530785697085,
                  "lng" : 10.2058182197085
               }
            }
         },
         "place_id" : "ChIJFbTedpE_TEYRiq-5rwVXWiQ",
         "types" : [ "premise" ]
      }
   ],
   "status" : "OK"
}
