{
   "results" : [
      {
         "address_components" : [
            {
               "long_name" : "33",
               "short_name" : "33",
               "types" : [ "street_number" ]
            },
            {
               "long_name" : "Frederikssundsvej",
               "short_name" : "Frederikssundsvej",
               "types" : [ "route" ]
            },
            {
               "long_name" : "København NV",
               "short_name" : "København NV",
               "types" : [ "political", "sublocality", "sublocality_level_1" ]
            },
            {
               "long_name" : "København",
               "short_name" : "København",
               "types" : [ "locality", "political" ]
            },
            {
               "long_name" : "Denmark",
               "short_name" : "DK",
               "types" : [ "country", "political" ]
            },
            {
               "long_name" : "2400",
               "short_name" : "2400",
               "types" : [ "postal_code" ]
            }
         ],
         "formatted_address" : "Frederikssundsvej 33, 2400 København NV, Denmark",
         "geometry" : {
            "location" : {
               "lat" : 55.701954,
               "lng" : 12.532648
            },
            "location_type" : "ROOFTOP",
            "viewport" : {
               "northeast" : {
                  "lat" : 55.7033029802915,
                  "lng" : 12.5339969802915
               },
               "southwest" : {
                  "lat" : 55.7006050197085,
                  "lng" : 12.5312990197085
               }
            }
         },
         "partial_match" : true,
         "place_id" : "ChIJmwhKEUpSUkYRt0UEWP30fgI",
         "types" : [ "street_address" ]
      }
   ],
   "status" : "OK"
}
