{
   "results" : [
      {
         "address_components" : [
            {
               "long_name" : "23",
               "short_name" : "23",
               "types" : [ "street_number" ]
            },
            {
               "long_name" : "Fiskerihavnsgade",
               "short_name" : "Fiskerihavnsgade",
               "types" : [ "route" ]
            },
            {
               "long_name" : "Frederikshavn",
               "short_name" : "Frederikshavn",
               "types" : [ "locality", "political" ]
            },
            {
               "long_name" : "Denmark",
               "short_name" : "DK",
               "types" : [ "country", "political" ]
            },
            {
               "long_name" : "9900",
               "short_name" : "9900",
               "types" : [ "postal_code" ]
            }
         ],
         "formatted_address" : "Fiskerihavnsgade 23, 9900 Frederikshavn, Denmark",
         "geometry" : {
            "location" : {
               "lat" : 57.440392,
               "lng" : 10.546899
            },
            "location_type" : "ROOFTOP",
            "viewport" : {
               "northeast" : {
                  "lat" : 57.44174098029151,
                  "lng" : 10.5482479802915
               },
               "southwest" : {
                  "lat" : 57.43904301970849,
                  "lng" : 10.5455500197085
               }
            }
         },
         "place_id" : "ChIJIaEGLXg8T0YRHA8jnRt6ubc",
         "types" : [ "street_address" ]
      }
   ],
   "status" : "OK"
}
