{
   "results" : [
      {
         "address_components" : [
            {
               "long_name" : "102",
               "short_name" : "102",
               "types" : [ "street_number" ]
            },
            {
               "long_name" : "Hovedvejen",
               "short_name" : "Hovedvejen",
               "types" : [ "route" ]
            },
            {
               "long_name" : "Glostrup",
               "short_name" : "Glostrup",
               "types" : [ "locality", "political" ]
            },
            {
               "long_name" : "Denmark",
               "short_name" : "DK",
               "types" : [ "country", "political" ]
            },
            {
               "long_name" : "2600",
               "short_name" : "2600",
               "types" : [ "postal_code" ]
            }
         ],
         "formatted_address" : "Hovedvejen 102, 2600 Glostrup, Denmark",
         "geometry" : {
            "bounds" : {
               "northeast" : {
                  "lat" : 55.6664132,
                  "lng" : 12.4001392
               },
               "southwest" : {
                  "lat" : 55.6662346,
                  "lng" : 12.3996642
               }
            },
            "location" : {
               "lat" : 55.66632389999999,
               "lng" : 12.3999017
            },
            "location_type" : "ROOFTOP",
            "viewport" : {
               "northeast" : {
                  "lat" : 55.6676728802915,
                  "lng" : 12.4012506802915
               },
               "southwest" : {
                  "lat" : 55.6649749197085,
                  "lng" : 12.3985527197085
               }
            }
         },
         "place_id" : "ChIJEStdztJQUkYRxqVzA9dpoo8",
         "types" : [ "premise" ]
      }
   ],
   "status" : "OK"
}
