{
   "results" : [
      {
         "address_components" : [
            {
               "long_name" : "11B",
               "short_name" : "11B",
               "types" : [ "street_number" ]
            },
            {
               "long_name" : "Reberbansgade",
               "short_name" : "Reberbansgade",
               "types" : [ "route" ]
            },
            {
               "long_name" : "Aalborg",
               "short_name" : "Aalborg",
               "types" : [ "locality", "political" ]
            },
            {
               "long_name" : "Denmark",
               "short_name" : "DK",
               "types" : [ "country", "political" ]
            },
            {
               "long_name" : "9000",
               "short_name" : "9000",
               "types" : [ "postal_code" ]
            }
         ],
         "formatted_address" : "Reberbansgade 11B, 9000 Aalborg, Denmark",
         "geometry" : {
            "location" : {
               "lat" : 57.049322,
               "lng" : 9.9134309
            },
            "location_type" : "ROOFTOP",
            "viewport" : {
               "northeast" : {
                  "lat" : 57.0506709802915,
                  "lng" : 9.914779880291503
               },
               "southwest" : {
                  "lat" : 57.0479730197085,
                  "lng" : 9.912081919708498
               }
            }
         },
         "place_id" : "ChIJM8CJ3YoySUYR5AWryMGuU-E",
         "types" : [ "street_address" ]
      }
   ],
   "status" : "OK"
}
