{
   "results" : [
      {
         "address_components" : [
            {
               "long_name" : "5",
               "short_name" : "5",
               "types" : [ "street_number" ]
            },
            {
               "long_name" : "Jessens Mole",
               "short_name" : "Jessens Mole",
               "types" : [ "route" ]
            },
            {
               "long_name" : "Svendborg",
               "short_name" : "Svendborg",
               "types" : [ "locality", "political" ]
            },
            {
               "long_name" : "Denmark",
               "short_name" : "DK",
               "types" : [ "country", "political" ]
            },
            {
               "long_name" : "5700",
               "short_name" : "5700",
               "types" : [ "postal_code" ]
            }
         ],
         "formatted_address" : "Jessens Mole 5, 5700 Svendborg, Denmark",
         "geometry" : {
            "location" : {
               "lat" : 55.0598525,
               "lng" : 10.6141208
            },
            "location_type" : "ROOFTOP",
            "viewport" : {
               "northeast" : {
                  "lat" : 55.0612014802915,
                  "lng" : 10.6154697802915
               },
               "southwest" : {
                  "lat" : 55.0585035197085,
                  "lng" : 10.6127718197085
               }
            }
         },
         "partial_match" : true,
         "place_id" : "ChIJ_0Xhp20zTUYReo6ZvproohA",
         "types" : [ "street_address" ]
      }
   ],
   "status" : "OK"
}
