{
   "results" : [
      {
         "address_components" : [
            {
               "long_name" : "44",
               "short_name" : "44",
               "types" : [ "street_number" ]
            },
            {
               "long_name" : "Vodskovvej",
               "short_name" : "Vodskovvej",
               "types" : [ "route" ]
            },
            {
               "long_name" : "Vodskov",
               "short_name" : "Vodskov",
               "types" : [ "locality", "political" ]
            },
            {
               "long_name" : "Denmark",
               "short_name" : "DK",
               "types" : [ "country", "political" ]
            },
            {
               "long_name" : "9310",
               "short_name" : "9310",
               "types" : [ "postal_code" ]
            }
         ],
         "formatted_address" : "Vodskovvej 44, 9310 Vodskov, Denmark",
         "geometry" : {
            "location" : {
               "lat" : 57.104893,
               "lng" : 10.030855
            },
            "location_type" : "ROOFTOP",
            "viewport" : {
               "northeast" : {
                  "lat" : 57.10624198029151,
                  "lng" : 10.0322039802915
               },
               "southwest" : {
                  "lat" : 57.10354401970851,
                  "lng" : 10.0295060197085
               }
            }
         },
         "place_id" : "ChIJMSsbx9_STkYRoWcEvBSj2AY",
         "types" : [ "street_address" ]
      }
   ],
   "status" : "OK"
}
