{
   "results" : [
      {
         "address_components" : [
            {
               "long_name" : "2C",
               "short_name" : "2C",
               "types" : [ "street_number" ]
            },
            {
               "long_name" : "Bramstræde",
               "short_name" : "Bramstræde",
               "types" : [ "route" ]
            },
            {
               "long_name" : "Helsingør",
               "short_name" : "Helsingør",
               "types" : [ "locality", "political" ]
            },
            {
               "long_name" : "Denmark",
               "short_name" : "DK",
               "types" : [ "country", "political" ]
            },
            {
               "long_name" : "3000",
               "short_name" : "3000",
               "types" : [ "postal_code" ]
            }
         ],
         "formatted_address" : "Bramstræde 2C, 3000 Helsingør, Denmark",
         "geometry" : {
            "location" : {
               "lat" : 56.034203,
               "lng" : 12.613047
            },
            "location_type" : "ROOFTOP",
            "viewport" : {
               "northeast" : {
                  "lat" : 56.03555198029149,
                  "lng" : 12.6143959802915
               },
               "southwest" : {
                  "lat" : 56.0328540197085,
                  "lng" : 12.6116980197085
               }
            }
         },
         "place_id" : "ChIJ4eI6TBExUkYRPiJuBKF_XQw",
         "types" : [ "street_address" ]
      }
   ],
   "status" : "OK"
}
