{
   "results" : [
      {
         "address_components" : [
            {
               "long_name" : "24",
               "short_name" : "24",
               "types" : [ "street_number" ]
            },
            {
               "long_name" : "Nyvej",
               "short_name" : "Nyvej",
               "types" : [ "route" ]
            },
            {
               "long_name" : "Brovst",
               "short_name" : "Brovst",
               "types" : [ "locality", "political" ]
            },
            {
               "long_name" : "Denmark",
               "short_name" : "DK",
               "types" : [ "country", "political" ]
            },
            {
               "long_name" : "9460",
               "short_name" : "9460",
               "types" : [ "postal_code" ]
            }
         ],
         "formatted_address" : "Nyvej 24, 9460 Brovst, Denmark",
         "geometry" : {
            "location" : {
               "lat" : 57.0992871,
               "lng" : 9.524482899999999
            },
            "location_type" : "ROOFTOP",
            "viewport" : {
               "northeast" : {
                  "lat" : 57.1006360802915,
                  "lng" : 9.525831880291502
               },
               "southwest" : {
                  "lat" : 57.0979381197085,
                  "lng" : 9.523133919708497
               }
            }
         },
         "place_id" : "ChIJ0V0Knio9SUYR6UjVpduK3HQ",
         "types" : [ "street_address" ]
      }
   ],
   "status" : "OK"
}
