{
   "results" : [
      {
         "address_components" : [
            {
               "long_name" : "8",
               "short_name" : "8",
               "types" : [ "street_number" ]
            },
            {
               "long_name" : "Nytorv",
               "short_name" : "Nytorv",
               "types" : [ "route" ]
            },
            {
               "long_name" : "Aalborg Centrum",
               "short_name" : "Aalborg Centrum",
               "types" : [ "political", "sublocality", "sublocality_level_1" ]
            },
            {
               "long_name" : "Aalborg",
               "short_name" : "Aalborg",
               "types" : [ "locality", "political" ]
            },
            {
               "long_name" : "Denmark",
               "short_name" : "DK",
               "types" : [ "country", "political" ]
            },
            {
               "long_name" : "9000",
               "short_name" : "9000",
               "types" : [ "postal_code" ]
            }
         ],
         "formatted_address" : "Nytorv 8, 9000 Aalborg, Denmark",
         "geometry" : {
            "location" : {
               "lat" : 57.0482958,
               "lng" : 9.922438999999999
            },
            "location_type" : "ROOFTOP",
            "viewport" : {
               "northeast" : {
                  "lat" : 57.04964478029149,
                  "lng" : 9.9237879802915
               },
               "southwest" : {
                  "lat" : 57.0469468197085,
                  "lng" : 9.921090019708496
               }
            }
         },
         "place_id" : "ChIJjf3XII0ySUYReAd039Osjbk",
         "types" : [ "street_address" ]
      }
   ],
   "status" : "OK"
}
