{
   "results" : [
      {
         "address_components" : [
            {
               "long_name" : "2",
               "short_name" : "2",
               "types" : [ "street_number" ]
            },
            {
               "long_name" : "Ellebjergvej",
               "short_name" : "Ellebjergvej",
               "types" : [ "route" ]
            },
            {
               "long_name" : "Risskov",
               "short_name" : "Risskov",
               "types" : [ "locality", "political" ]
            },
            {
               "long_name" : "Denmark",
               "short_name" : "DK",
               "types" : [ "country", "political" ]
            },
            {
               "long_name" : "8240",
               "short_name" : "8240",
               "types" : [ "postal_code" ]
            }
         ],
         "formatted_address" : "Ellebjergvej 2, 8240 Risskov, Denmark",
         "geometry" : {
            "location" : {
               "lat" : 56.1942934,
               "lng" : 10.2342764
            },
            "location_type" : "ROOFTOP",
            "viewport" : {
               "northeast" : {
                  "lat" : 56.1956423802915,
                  "lng" : 10.2356253802915
               },
               "southwest" : {
                  "lat" : 56.1929444197085,
                  "lng" : 10.2329274197085
               }
            }
         },
         "place_id" : "ChIJmeo_f1o-TEYRx0TVAMRRzek",
         "types" : [ "street_address" ]
      }
   ],
   "status" : "OK"
}
