{
   "results" : [
      {
         "address_components" : [
            {
               "long_name" : "15",
               "short_name" : "15",
               "types" : [ "street_number" ]
            },
            {
               "long_name" : "Kildegårdsvej",
               "short_name" : "Kildegårdsvej",
               "types" : [ "route" ]
            },
            {
               "long_name" : "Hellerup",
               "short_name" : "Hellerup",
               "types" : [ "locality", "political" ]
            },
            {
               "long_name" : "Denmark",
               "short_name" : "DK",
               "types" : [ "country", "political" ]
            },
            {
               "long_name" : "2900",
               "short_name" : "2900",
               "types" : [ "postal_code" ]
            }
         ],
         "formatted_address" : "Kildegårdsvej 15, 2900 Hellerup, Denmark",
         "geometry" : {
            "location" : {
               "lat" : 55.735116,
               "lng" : 12.5562671
            },
            "location_type" : "ROOFTOP",
            "viewport" : {
               "northeast" : {
                  "lat" : 55.7364649802915,
                  "lng" : 12.5576160802915
               },
               "southwest" : {
                  "lat" : 55.7337670197085,
                  "lng" : 12.5549181197085
               }
            }
         },
         "place_id" : "ChIJwzhppXZSUkYRnkcxOrbpQgQ",
         "types" : [ "street_address" ]
      }
   ],
   "status" : "OK"
}
