{
   "results" : [
      {
         "address_components" : [
            {
               "long_name" : "37",
               "short_name" : "37",
               "types" : [ "street_number" ]
            },
            {
               "long_name" : "Rådhuspladsen",
               "short_name" : "Rådhuspladsen",
               "types" : [ "route" ]
            },
            {
               "long_name" : "København V",
               "short_name" : "København V",
               "types" : [ "political", "sublocality", "sublocality_level_1" ]
            },
            {
               "long_name" : "København",
               "short_name" : "København",
               "types" : [ "locality", "political" ]
            },
            {
               "long_name" : "Denmark",
               "short_name" : "DK",
               "types" : [ "country", "political" ]
            },
            {
               "long_name" : "1550",
               "short_name" : "1550",
               "types" : [ "postal_code" ]
            }
         ],
         "formatted_address" : "Rådhuspladsen 37, 1550 København V, Denmark",
         "geometry" : {
            "location" : {
               "lat" : 55.6769309,
               "lng" : 12.5683766
            },
            "location_type" : "ROOFTOP",
            "viewport" : {
               "northeast" : {
                  "lat" : 55.67827988029149,
                  "lng" : 12.5697255802915
               },
               "southwest" : {
                  "lat" : 55.6755819197085,
                  "lng" : 12.5670276197085
               }
            }
         },
         "partial_match" : true,
         "place_id" : "ChIJNUfDCA5TUkYR862peCXpipQ",
         "types" : [ "street_address" ]
      }
   ],
   "status" : "OK"
}
