{
   "results" : [
      {
         "address_components" : [
            {
               "long_name" : "128",
               "short_name" : "128",
               "types" : [ "street_number" ]
            },
            {
               "long_name" : "Grønttorvet",
               "short_name" : "Grønttorvet",
               "types" : [ "route" ]
            },
            {
               "long_name" : "Valby",
               "short_name" : "Valby",
               "types" : [ "political", "sublocality", "sublocality_level_1" ]
            },
            {
               "long_name" : "København",
               "short_name" : "København",
               "types" : [ "locality", "political" ]
            },
            {
               "long_name" : "Denmark",
               "short_name" : "DK",
               "types" : [ "country", "political" ]
            },
            {
               "long_name" : "2500",
               "short_name" : "2500",
               "types" : [ "postal_code" ]
            }
         ],
         "formatted_address" : "Grønttorvet 128, 2500 Valby, Denmark",
         "geometry" : {
            "location" : {
               "lat" : 55.656564,
               "lng" : 12.502599
            },
            "location_type" : "ROOFTOP",
            "viewport" : {
               "northeast" : {
                  "lat" : 55.65791298029151,
                  "lng" : 12.5039479802915
               },
               "southwest" : {
                  "lat" : 55.65521501970851,
                  "lng" : 12.5012500197085
               }
            }
         },
         "place_id" : "ChIJSXqL6fVTUkYRip7AWoYlO_M",
         "types" : [ "street_address" ]
      }
   ],
   "status" : "OK"
}
