{
   "results" : [
      {
         "address_components" : [
            {
               "long_name" : "11A",
               "short_name" : "11A",
               "types" : [ "street_number" ]
            },
            {
               "long_name" : "Wilders Plads",
               "short_name" : "Wilders Pl.",
               "types" : [ "route" ]
            },
            {
               "long_name" : "København K",
               "short_name" : "København K",
               "types" : [ "political", "sublocality", "sublocality_level_1" ]
            },
            {
               "long_name" : "København",
               "short_name" : "København",
               "types" : [ "locality", "political" ]
            },
            {
               "long_name" : "Denmark",
               "short_name" : "DK",
               "types" : [ "country", "political" ]
            },
            {
               "long_name" : "1403",
               "short_name" : "1403",
               "types" : [ "postal_code" ]
            }
         ],
         "formatted_address" : "Wilders Pl. 11A, 1403 København K, Denmark",
         "geometry" : {
            "location" : {
               "lat" : 55.6749435,
               "lng" : 12.5942738
            },
            "location_type" : "ROOFTOP",
            "viewport" : {
               "northeast" : {
                  "lat" : 55.67629248029149,
                  "lng" : 12.5956227802915
               },
               "southwest" : {
                  "lat" : 55.67359451970849,
                  "lng" : 12.5929248197085
               }
            }
         },
         "place_id" : "ChIJgQyU9jtTUkYRRMUUZ5EWxE4",
         "types" : [ "street_address" ]
      }
   ],
   "status" : "OK"
}
