{
   "results" : [
      {
         "address_components" : [
            {
               "long_name" : "46",
               "short_name" : "46",
               "types" : [ "street_number" ]
            },
            {
               "long_name" : "Falkoner Alle",
               "short_name" : "Falkoner Alle",
               "types" : [ "route" ]
            },
            {
               "long_name" : "Frederiksberg",
               "short_name" : "Frederiksberg",
               "types" : [ "locality", "political" ]
            },
            {
               "long_name" : "Denmark",
               "short_name" : "DK",
               "types" : [ "country", "political" ]
            },
            {
               "long_name" : "2000",
               "short_name" : "2000",
               "types" : [ "postal_code" ]
            }
         ],
         "formatted_address" : "Falkoner Alle 46, 2000 Frederiksberg, Denmark",
         "geometry" : {
            "location" : {
               "lat" : 55.6830076,
               "lng" : 12.5362102
            },
            "location_type" : "ROOFTOP",
            "viewport" : {
               "northeast" : {
                  "lat" : 55.6843565802915,
                  "lng" : 12.5375591802915
               },
               "southwest" : {
                  "lat" : 55.6816586197085,
                  "lng" : 12.5348612197085
               }
            }
         },
         "place_id" : "ChIJp1TQ47pTUkYRnGXS3MY3dUQ",
         "types" : [ "street_address" ]
      }
   ],
   "status" : "OK"
}
