{
   "results" : [
      {
         "address_components" : [
            {
               "long_name" : "14",
               "short_name" : "14",
               "types" : [ "street_number" ]
            },
            {
               "long_name" : "Solbjergvej",
               "short_name" : "Solbjergvej",
               "types" : [ "route" ]
            },
            {
               "long_name" : "Viby",
               "short_name" : "Viby J",
               "types" : [ "locality", "political" ]
            },
            {
               "long_name" : "Denmark",
               "short_name" : "DK",
               "types" : [ "country", "political" ]
            },
            {
               "long_name" : "8260",
               "short_name" : "8260",
               "types" : [ "postal_code" ]
            }
         ],
         "formatted_address" : "Solbjergvej 14, 8260 Viby, Denmark",
         "geometry" : {
            "location" : {
               "lat" : 56.12274,
               "lng" : 10.15611
            },
            "location_type" : "ROOFTOP",
            "viewport" : {
               "northeast" : {
                  "lat" : 56.1240889802915,
                  "lng" : 10.1574589802915
               },
               "southwest" : {
                  "lat" : 56.1213910197085,
                  "lng" : 10.1547610197085
               }
            }
         },
         "place_id" : "ChIJAzzlmx9ATEYRUU4wol4eKYs",
         "types" : [ "street_address" ]
      }
   ],
   "status" : "OK"
}
