{
   "results" : [
      {
         "address_components" : [
            {
               "long_name" : "27",
               "short_name" : "27",
               "types" : [ "street_number" ]
            },
            {
               "long_name" : "Enggårdsgade",
               "short_name" : "Enggårdsgade",
               "types" : [ "route" ]
            },
            {
               "long_name" : "Aalborg",
               "short_name" : "Aalborg",
               "types" : [ "locality", "political" ]
            },
            {
               "long_name" : "Denmark",
               "short_name" : "DK",
               "types" : [ "country", "political" ]
            },
            {
               "long_name" : "9000",
               "short_name" : "9000",
               "types" : [ "postal_code" ]
            }
         ],
         "formatted_address" : "Enggårdsgade 27, 9000 Aalborg, Denmark",
         "geometry" : {
            "location" : {
               "lat" : 57.030269,
               "lng" : 9.915863
            },
            "location_type" : "ROOFTOP",
            "viewport" : {
               "northeast" : {
                  "lat" : 57.03161798029149,
                  "lng" : 9.917211980291501
               },
               "southwest" : {
                  "lat" : 57.0289200197085,
                  "lng" : 9.914514019708498
               }
            }
         },
         "place_id" : "ChIJFygGhPwySUYRFT1qP1YVuro",
         "types" : [ "street_address" ]
      }
   ],
   "status" : "OK"
}
