{
   "results" : [
      {
         "address_components" : [
            {
               "long_name" : "Hal 2",
               "short_name" : "Hal 2",
               "types" : [ "premise" ]
            },
            {
               "long_name" : "21",
               "short_name" : "21",
               "types" : [ "street_number" ]
            },
            {
               "long_name" : "Frederiksborggade",
               "short_name" : "Frederiksborggade",
               "types" : [ "route" ]
            },
            {
               "long_name" : "København K",
               "short_name" : "København K",
               "types" : [ "political", "sublocality", "sublocality_level_1" ]
            },
            {
               "long_name" : "København",
               "short_name" : "København",
               "types" : [ "locality", "political" ]
            },
            {
               "long_name" : "Denmark",
               "short_name" : "DK",
               "types" : [ "country", "political" ]
            },
            {
               "long_name" : "1360",
               "short_name" : "1360",
               "types" : [ "postal_code" ]
            }
         ],
         "formatted_address" : "Hal 2, Frederiksborggade 21, 1360 København K, Denmark",
         "geometry" : {
            "bounds" : {
               "northeast" : {
                  "lat" : 55.68393289999999,
                  "lng" : 12.5701351
               },
               "southwest" : {
                  "lat" : 55.68346099999999,
                  "lng" : 12.5693786
               }
            },
            "location" : {
               "lat" : 55.6836899,
               "lng" : 12.5697655
            },
            "location_type" : "ROOFTOP",
            "viewport" : {
               "northeast" : {
                  "lat" : 55.68504593029149,
                  "lng" : 12.5711058302915
               },
               "southwest" : {
                  "lat" : 55.6823479697085,
                  "lng" : 12.5684078697085
               }
            }
         },
         "partial_match" : true,
         "place_id" : "ChIJGzGFEgVTUkYRFLdP9KiqFoM",
         "types" : [ "premise" ]
      }
   ],
   "status" : "OK"
}
