{
   "results" : [
      {
         "address_components" : [
            {
               "long_name" : "22",
               "short_name" : "22",
               "types" : [ "street_number" ]
            },
            {
               "long_name" : "Nørregade",
               "short_name" : "Nørregade",
               "types" : [ "route" ]
            },
            {
               "long_name" : "Aalborg Centrum",
               "short_name" : "Aalborg Centrum",
               "types" : [ "political", "sublocality", "sublocality_level_1" ]
            },
            {
               "long_name" : "Aalborg",
               "short_name" : "Aalborg",
               "types" : [ "locality", "political" ]
            },
            {
               "long_name" : "Denmark",
               "short_name" : "DK",
               "types" : [ "country", "political" ]
            },
            {
               "long_name" : "9000",
               "short_name" : "9000",
               "types" : [ "postal_code" ]
            }
         ],
         "formatted_address" : "Nørregade 22, 9000 Aalborg, Denmark",
         "geometry" : {
            "location" : {
               "lat" : 57.0464565,
               "lng" : 9.927550999999999
            },
            "location_type" : "ROOFTOP",
            "viewport" : {
               "northeast" : {
                  "lat" : 57.04780548029149,
                  "lng" : 9.928899980291501
               },
               "southwest" : {
                  "lat" : 57.04510751970849,
                  "lng" : 9.926202019708496
               }
            }
         },
         "place_id" : "ChIJBQctSu0ySUYRY1hZYVfHDqI",
         "types" : [ "street_address" ]
      }
   ],
   "status" : "OK"
}
