{
   "results" : [
      {
         "address_components" : [
            {
               "long_name" : "63",
               "short_name" : "63",
               "types" : [ "street_number" ]
            },
            {
               "long_name" : "Tordenskjoldsgade",
               "short_name" : "Tordenskjoldsgade",
               "types" : [ "route" ]
            },
            {
               "long_name" : "Aarhus N",
               "short_name" : "Aarhus N",
               "types" : [ "political", "sublocality", "sublocality_level_1" ]
            },
            {
               "long_name" : "Aarhus",
               "short_name" : "Aarhus",
               "types" : [ "locality", "political" ]
            },
            {
               "long_name" : "Denmark",
               "short_name" : "DK",
               "types" : [ "country", "political" ]
            },
            {
               "long_name" : "8200",
               "short_name" : "8200",
               "types" : [ "postal_code" ]
            }
         ],
         "formatted_address" : "Tordenskjoldsgade 63, 8200 Aarhus N, Denmark",
         "geometry" : {
            "location" : {
               "lat" : 56.17239199999999,
               "lng" : 10.216198
            },
            "location_type" : "ROOFTOP",
            "viewport" : {
               "northeast" : {
                  "lat" : 56.1737409802915,
                  "lng" : 10.2175469802915
               },
               "southwest" : {
                  "lat" : 56.1710430197085,
                  "lng" : 10.2148490197085
               }
            }
         },
         "partial_match" : true,
         "place_id" : "ChIJtSdIZbo_TEYRpxpv98M4JYY",
         "types" : [ "street_address" ]
      }
   ],
   "status" : "OK"
}
