{
   "results" : [
      {
         "address_components" : [
            {
               "long_name" : "5",
               "short_name" : "5",
               "types" : [ "street_number" ]
            },
            {
               "long_name" : "Torvet",
               "short_name" : "Torvet",
               "types" : [ "route" ]
            },
            {
               "long_name" : "Ærøskøbing",
               "short_name" : "Ærøskøbing",
               "types" : [ "locality", "political" ]
            },
            {
               "long_name" : "Denmark",
               "short_name" : "DK",
               "types" : [ "country", "political" ]
            },
            {
               "long_name" : "5970",
               "short_name" : "5970",
               "types" : [ "postal_code" ]
            }
         ],
         "formatted_address" : "Torvet 5, 5970 Ærøskøbing, Denmark",
         "geometry" : {
            "bounds" : {
               "northeast" : {
                  "lat" : 54.8883488,
                  "lng" : 10.4112334
               },
               "southwest" : {
                  "lat" : 54.8881171,
                  "lng" : 10.4109188
               }
            },
            "location" : {
               "lat" : 54.888233,
               "lng" : 10.4110761
            },
            "location_type" : "ROOFTOP",
            "viewport" : {
               "northeast" : {
                  "lat" : 54.88958193029149,
                  "lng" : 10.4124250802915
               },
               "southwest" : {
                  "lat" : 54.88688396970849,
                  "lng" : 10.4097271197085
               }
            }
         },
         "place_id" : "ChIJNbgS92rQskcRJZeLupMm1ho",
         "types" : [ "premise" ]
      }
   ],
   "status" : "OK"
}
