{
   "results" : [
      {
         "address_components" : [
            {
               "long_name" : "5",
               "short_name" : "5",
               "types" : [ "street_number" ]
            },
            {
               "long_name" : "Mads Clausens Vej",
               "short_name" : "Mads Clausens Vej",
               "types" : [ "route" ]
            },
            {
               "long_name" : "Silkeborg",
               "short_name" : "Silkeborg",
               "types" : [ "locality", "political" ]
            },
            {
               "long_name" : "Denmark",
               "short_name" : "DK",
               "types" : [ "country", "political" ]
            },
            {
               "long_name" : "8600",
               "short_name" : "8600",
               "types" : [ "postal_code" ]
            }
         ],
         "formatted_address" : "Mads Clausens Vej 5, 8600 Silkeborg, Denmark",
         "geometry" : {
            "location" : {
               "lat" : 56.20037199999999,
               "lng" : 9.587944999999999
            },
            "location_type" : "ROOFTOP",
            "viewport" : {
               "northeast" : {
                  "lat" : 56.2017209802915,
                  "lng" : 9.589293980291501
               },
               "southwest" : {
                  "lat" : 56.1990230197085,
                  "lng" : 9.586596019708496
               }
            }
         },
         "place_id" : "ChIJ8cbkdtf0S0YR98Ji9HyDiAY",
         "types" : [ "street_address" ]
      }
   ],
   "status" : "OK"
}
