{
   "results" : [
      {
         "address_components" : [
            {
               "long_name" : "20",
               "short_name" : "20",
               "types" : [ "street_number" ]
            },
            {
               "long_name" : "Exnersgade",
               "short_name" : "Exnersgade",
               "types" : [ "route" ]
            },
            {
               "long_name" : "Esbjerg",
               "short_name" : "Esbjerg",
               "types" : [ "locality", "political" ]
            },
            {
               "long_name" : "Denmark",
               "short_name" : "DK",
               "types" : [ "country", "political" ]
            },
            {
               "long_name" : "6700",
               "short_name" : "6700",
               "types" : [ "postal_code" ]
            }
         ],
         "formatted_address" : "Exnersgade 20, 6700 Esbjerg, Denmark",
         "geometry" : {
            "location" : {
               "lat" : 55.46528480000001,
               "lng" : 8.4573216
            },
            "location_type" : "ROOFTOP",
            "viewport" : {
               "northeast" : {
                  "lat" : 55.46663378029151,
                  "lng" : 8.458670580291502
               },
               "southwest" : {
                  "lat" : 55.46393581970851,
                  "lng" : 8.455972619708497
               }
            }
         },
         "place_id" : "ChIJX9Y40NImS0YRgFeIo0NZBYw",
         "types" : [ "establishment", "point_of_interest", "shopping_mall" ]
      }
   ],
   "status" : "OK"
}
