{
   "results" : [
      {
         "address_components" : [
            {
               "long_name" : "7190",
               "short_name" : "7190",
               "types" : [ "postal_code" ]
            },
            {
               "long_name" : "Billund",
               "short_name" : "Billund",
               "types" : [ "locality", "political" ]
            },
            {
               "long_name" : "Denmark",
               "short_name" : "DK",
               "types" : [ "country", "political" ]
            }
         ],
         "formatted_address" : "7190 Billund, Denmark",
         "geometry" : {
            "bounds" : {
               "northeast" : {
                  "lat" : 55.78936950000001,
                  "lng" : 9.1801721
               },
               "southwest" : {
                  "lat" : 55.6724106,
                  "lng" : 8.9810461
               }
            },
            "location" : {
               "lat" : 55.74451699999999,
               "lng" : 9.0918343
            },
            "location_type" : "APPROXIMATE",
            "viewport" : {
               "northeast" : {
                  "lat" : 55.78936950000001,
                  "lng" : 9.1801721
               },
               "southwest" : {
                  "lat" : 55.6724106,
                  "lng" : 8.9810461
               }
            }
         },
         "partial_match" : true,
         "place_id" : "ChIJu2RMR81zS0YRh3Pr2ag_3DI",
         "types" : [ "postal_code" ]
      }
   ],
   "status" : "OK"
}
