{
   "results" : [
      {
         "address_components" : [
            {
               "long_name" : "3",
               "short_name" : "3",
               "types" : [ "street_number" ]
            },
            {
               "long_name" : "Magle Alle",
               "short_name" : "Magle Alle",
               "types" : [ "route" ]
            },
            {
               "long_name" : "Kastrup",
               "short_name" : "Kastrup",
               "types" : [ "locality", "political" ]
            },
            {
               "long_name" : "Denmark",
               "short_name" : "DK",
               "types" : [ "country", "political" ]
            },
            {
               "long_name" : "2770",
               "short_name" : "2770",
               "types" : [ "postal_code" ]
            }
         ],
         "formatted_address" : "Magle Alle 3, 2770 Kastrup, Denmark",
         "geometry" : {
            "bounds" : {
               "northeast" : {
                  "lat" : 55.6250447,
                  "lng" : 12.6259161
               },
               "southwest" : {
                  "lat" : 55.6247884,
                  "lng" : 12.6255504
               }
            },
            "location" : {
               "lat" : 55.6249165,
               "lng" : 12.6257332
            },
            "location_type" : "ROOFTOP",
            "viewport" : {
               "northeast" : {
                  "lat" : 55.6262655302915,
                  "lng" : 12.6270822302915
               },
               "southwest" : {
                  "lat" : 55.6235675697085,
                  "lng" : 12.6243842697085
               }
            }
         },
         "place_id" : "ChIJbfbqj0GrU0YRhg10WMCXgP4",
         "types" : [ "premise" ]
      }
   ],
   "status" : "OK"
}
