{
   "results" : [
      {
         "address_components" : [
            {
               "long_name" : "Jægergårdsgade",
               "short_name" : "Jægergårdsgade",
               "types" : [ "route" ]
            },
            {
               "long_name" : "Aarhus C",
               "short_name" : "Aarhus C",
               "types" : [ "political", "sublocality", "sublocality_level_1" ]
            },
            {
               "long_name" : "Aarhus",
               "short_name" : "Aarhus",
               "types" : [ "locality", "political" ]
            },
            {
               "long_name" : "Denmark",
               "short_name" : "DK",
               "types" : [ "country", "political" ]
            },
            {
               "long_name" : "8000",
               "short_name" : "8000",
               "types" : [ "postal_code" ]
            }
         ],
         "formatted_address" : "Jægergårdsgade, 8000 Aarhus C, Denmark",
         "geometry" : {
            "bounds" : {
               "northeast" : {
                  "lat" : 56.1487103,
                  "lng" : 10.21441
               },
               "southwest" : {
                  "lat" : 56.146789,
                  "lng" : 10.196582
               }
            },
            "location" : {
               "lat" : 56.148483,
               "lng" : 10.2057255
            },
            "location_type" : "GEOMETRIC_CENTER",
            "viewport" : {
               "northeast" : {
                  "lat" : 56.1490986302915,
                  "lng" : 10.21441
               },
               "southwest" : {
                  "lat" : 56.1464006697085,
                  "lng" : 10.196582
               }
            }
         },
         "place_id" : "ChIJyQe67I4_TEYRJV_4RoYZ0u0",
         "types" : [ "route" ]
      }
   ],
   "status" : "OK"
}
