{
   "results" : [
      {
         "address_components" : [
            {
               "long_name" : "28",
               "short_name" : "28",
               "types" : [ "street_number" ]
            },
            {
               "long_name" : "Frederiksberg Allé",
               "short_name" : "Frederiksberg Allé",
               "types" : [ "route" ]
            },
            {
               "long_name" : "Frederiksberg C",
               "short_name" : "Frederiksberg C",
               "types" : [ "political", "sublocality", "sublocality_level_1" ]
            },
            {
               "long_name" : "Frederiksberg",
               "short_name" : "Frederiksberg",
               "types" : [ "locality", "political" ]
            },
            {
               "long_name" : "Denmark",
               "short_name" : "DK",
               "types" : [ "country", "political" ]
            },
            {
               "long_name" : "1820",
               "short_name" : "1820",
               "types" : [ "postal_code" ]
            }
         ],
         "formatted_address" : "Frederiksberg Allé 28, 1820 Frederiksberg C, Denmark",
         "geometry" : {
            "location" : {
               "lat" : 55.67355999999999,
               "lng" : 12.546315
            },
            "location_type" : "ROOFTOP",
            "viewport" : {
               "northeast" : {
                  "lat" : 55.6749089802915,
                  "lng" : 12.5476639802915
               },
               "southwest" : {
                  "lat" : 55.6722110197085,
                  "lng" : 12.5449660197085
               }
            }
         },
         "place_id" : "ChIJ6RvA1qFTUkYRNHCr763oCuo",
         "types" : [ "street_address" ]
      }
   ],
   "status" : "OK"
}
