{
   "results" : [
      {
         "address_components" : [
            {
               "long_name" : "212c",
               "short_name" : "212c",
               "types" : [ "street_number" ]
            },
            {
               "long_name" : "Hundige Strandvej",
               "short_name" : "Hundige Strandvej",
               "types" : [ "route" ]
            },
            {
               "long_name" : "Greve",
               "short_name" : "Greve",
               "types" : [ "locality", "political" ]
            },
            {
               "long_name" : "Denmark",
               "short_name" : "DK",
               "types" : [ "country", "political" ]
            },
            {
               "long_name" : "2670",
               "short_name" : "2670",
               "types" : [ "postal_code" ]
            }
         ],
         "formatted_address" : "Hundige Strandvej 212c, 2670 Greve, Denmark",
         "geometry" : {
            "location" : {
               "lat" : 55.583946,
               "lng" : 12.3155079
            },
            "location_type" : "ROOFTOP",
            "viewport" : {
               "northeast" : {
                  "lat" : 55.58529498029149,
                  "lng" : 12.3168568802915
               },
               "southwest" : {
                  "lat" : 55.58259701970849,
                  "lng" : 12.3141589197085
               }
            }
         },
         "place_id" : "ChIJ-5HkqwD4UkYRbxBMBnjeVQY",
         "types" : [ "street_address" ]
      }
   ],
   "status" : "OK"
}
