{
   "results" : [
      {
         "address_components" : [
            {
               "long_name" : "18",
               "short_name" : "18",
               "types" : [ "street_number" ]
            },
            {
               "long_name" : "Sankt Annæ Plads",
               "short_name" : "Sankt Annæ Pl.",
               "types" : [ "route" ]
            },
            {
               "long_name" : "København K",
               "short_name" : "København K",
               "types" : [ "political", "sublocality", "sublocality_level_1" ]
            },
            {
               "long_name" : "København",
               "short_name" : "København",
               "types" : [ "locality", "political" ]
            },
            {
               "long_name" : "Denmark",
               "short_name" : "DK",
               "types" : [ "country", "political" ]
            },
            {
               "long_name" : "1250",
               "short_name" : "1250",
               "types" : [ "postal_code" ]
            }
         ],
         "formatted_address" : "Sankt Annæ Pl. 18, 1250 København K, Denmark",
         "geometry" : {
            "location" : {
               "lat" : 55.6812476,
               "lng" : 12.5917309
            },
            "location_type" : "ROOFTOP",
            "viewport" : {
               "northeast" : {
                  "lat" : 55.6825965802915,
                  "lng" : 12.5930798802915
               },
               "southwest" : {
                  "lat" : 55.6798986197085,
                  "lng" : 12.5903819197085
               }
            }
         },
         "partial_match" : true,
         "place_id" : "ChIJI8BQ3SJTUkYR-rqo1wW0VDU",
         "types" : [ "street_address" ]
      }
   ],
   "status" : "OK"
}
