{
   "results" : [
      {
         "address_components" : [
            {
               "long_name" : "1",
               "short_name" : "1",
               "types" : [ "street_number" ]
            },
            {
               "long_name" : "Morsbøl Skolevej",
               "short_name" : "Morsbøl Skolevej",
               "types" : [ "route" ]
            },
            {
               "long_name" : "Grindsted",
               "short_name" : "Grindsted",
               "types" : [ "locality", "political" ]
            },
            {
               "long_name" : "Denmark",
               "short_name" : "DK",
               "types" : [ "country", "political" ]
            },
            {
               "long_name" : "7200",
               "short_name" : "7200",
               "types" : [ "postal_code" ]
            }
         ],
         "formatted_address" : "Morsbøl Skolevej 1, 7200 Grindsted, Denmark",
         "geometry" : {
            "location" : {
               "lat" : 55.7631458,
               "lng" : 8.8793813
            },
            "location_type" : "ROOFTOP",
            "viewport" : {
               "northeast" : {
                  "lat" : 55.7644947802915,
                  "lng" : 8.880730280291504
               },
               "southwest" : {
                  "lat" : 55.7617968197085,
                  "lng" : 8.878032319708499
               }
            }
         },
         "place_id" : "ChIJSf1TqjsMS0YRbZ56n2_X_XU",
         "types" : [ "street_address" ]
      }
   ],
   "status" : "OK"
}
