{
   "results" : [
      {
         "address_components" : [
            {
               "long_name" : "25",
               "short_name" : "25",
               "types" : [ "street_number" ]
            },
            {
               "long_name" : "Islands Brygge",
               "short_name" : "Islands Brygge",
               "types" : [ "route" ]
            },
            {
               "long_name" : "København S",
               "short_name" : "København S",
               "types" : [ "political", "sublocality", "sublocality_level_1" ]
            },
            {
               "long_name" : "København",
               "short_name" : "København",
               "types" : [ "locality", "political" ]
            },
            {
               "long_name" : "Denmark",
               "short_name" : "DK",
               "types" : [ "country", "political" ]
            },
            {
               "long_name" : "2300",
               "short_name" : "2300",
               "types" : [ "postal_code" ]
            }
         ],
         "formatted_address" : "Islands Brygge 25, 2300 København S, Denmark",
         "geometry" : {
            "location" : {
               "lat" : 55.6665909,
               "lng" : 12.5766842
            },
            "location_type" : "ROOFTOP",
            "viewport" : {
               "northeast" : {
                  "lat" : 55.66793988029151,
                  "lng" : 12.5780331802915
               },
               "southwest" : {
                  "lat" : 55.66524191970851,
                  "lng" : 12.5753352197085
               }
            }
         },
         "partial_match" : true,
         "place_id" : "ChIJb5fksWtTUkYRNkPtM7NlGAo",
         "types" : [ "street_address" ]
      }
   ],
   "status" : "OK"
}
