{
   "results" : [
      {
         "address_components" : [
            {
               "long_name" : "70",
               "short_name" : "70",
               "types" : [ "street_number" ]
            },
            {
               "long_name" : "Sct Jørgens Park",
               "short_name" : "Sct Jørgens Park",
               "types" : [ "route" ]
            },
            {
               "long_name" : "Næstved",
               "short_name" : "Næstved",
               "types" : [ "locality", "political" ]
            },
            {
               "long_name" : "Denmark",
               "short_name" : "DK",
               "types" : [ "country", "political" ]
            },
            {
               "long_name" : "4700",
               "short_name" : "4700",
               "types" : [ "postal_code" ]
            }
         ],
         "formatted_address" : "Sct Jørgens Park 70, 4700 Næstved, Denmark",
         "geometry" : {
            "location" : {
               "lat" : 55.21641,
               "lng" : 11.755944
            },
            "location_type" : "ROOFTOP",
            "viewport" : {
               "northeast" : {
                  "lat" : 55.2177589802915,
                  "lng" : 11.7572929802915
               },
               "southwest" : {
                  "lat" : 55.2150610197085,
                  "lng" : 11.7545950197085
               }
            }
         },
         "place_id" : "ChIJK4YeqZm-UkYRA3xpubdPmwI",
         "types" : [ "street_address" ]
      }
   ],
   "status" : "OK"
}
