{
   "results" : [
      {
         "address_components" : [
            {
               "long_name" : "42",
               "short_name" : "42",
               "types" : [ "street_number" ]
            },
            {
               "long_name" : "Håndværkerbyen",
               "short_name" : "Håndværkerbyen",
               "types" : [ "route" ]
            },
            {
               "long_name" : "Greve",
               "short_name" : "Greve",
               "types" : [ "locality", "political" ]
            },
            {
               "long_name" : "Denmark",
               "short_name" : "DK",
               "types" : [ "country", "political" ]
            },
            {
               "long_name" : "2670",
               "short_name" : "2670",
               "types" : [ "postal_code" ]
            }
         ],
         "formatted_address" : "Håndværkerbyen 42, 2670 Greve, Denmark",
         "geometry" : {
            "location" : {
               "lat" : 55.5890437,
               "lng" : 12.2942364
            },
            "location_type" : "ROOFTOP",
            "viewport" : {
               "northeast" : {
                  "lat" : 55.5903926802915,
                  "lng" : 12.2955853802915
               },
               "southwest" : {
                  "lat" : 55.5876947197085,
                  "lng" : 12.2928874197085
               }
            }
         },
         "place_id" : "ChIJi2pg0gdYUkYRg_LvUoGFfAU",
         "types" : [ "street_address" ]
      }
   ],
   "status" : "OK"
}
