{
   "results" : [
      {
         "address_components" : [
            {
               "long_name" : "41",
               "short_name" : "41",
               "types" : [ "street_number" ]
            },
            {
               "long_name" : "Næstved Storcenter",
               "short_name" : "Næstved Storcenter",
               "types" : [ "route" ]
            },
            {
               "long_name" : "Næstved",
               "short_name" : "Næstved",
               "types" : [ "locality", "political" ]
            },
            {
               "long_name" : "Denmark",
               "short_name" : "DK",
               "types" : [ "country", "political" ]
            },
            {
               "long_name" : "4700",
               "short_name" : "4700",
               "types" : [ "postal_code" ]
            }
         ],
         "formatted_address" : "Næstved Storcenter 41, 4700 Næstved, Denmark",
         "geometry" : {
            "location" : {
               "lat" : 55.253709,
               "lng" : 11.779647
            },
            "location_type" : "ROOFTOP",
            "viewport" : {
               "northeast" : {
                  "lat" : 55.2550579802915,
                  "lng" : 11.7809959802915
               },
               "southwest" : {
                  "lat" : 55.2523600197085,
                  "lng" : 11.7782980197085
               }
            }
         },
         "place_id" : "ChIJQR2vG22-UkYR3NCfrPQ5GvE",
         "types" : [ "street_address" ]
      }
   ],
   "status" : "OK"
}
