{
   "results" : [
      {
         "address_components" : [
            {
               "long_name" : "11",
               "short_name" : "11",
               "types" : [ "street_number" ]
            },
            {
               "long_name" : "Strandvejen",
               "short_name" : "Strandvejen",
               "types" : [ "route" ]
            },
            {
               "long_name" : "Aalborg",
               "short_name" : "Aalborg",
               "types" : [ "locality", "political" ]
            },
            {
               "long_name" : "Denmark",
               "short_name" : "DK",
               "types" : [ "country", "political" ]
            },
            {
               "long_name" : "9000",
               "short_name" : "9000",
               "types" : [ "postal_code" ]
            }
         ],
         "formatted_address" : "Strandvejen 11, 9000 Aalborg, Denmark",
         "geometry" : {
            "location" : {
               "lat" : 57.05263900000001,
               "lng" : 9.915671999999999
            },
            "location_type" : "ROOFTOP",
            "viewport" : {
               "northeast" : {
                  "lat" : 57.05398798029151,
                  "lng" : 9.9170209802915
               },
               "southwest" : {
                  "lat" : 57.05129001970851,
                  "lng" : 9.914323019708496
               }
            }
         },
         "place_id" : "ChIJheGdzYsySUYR2f3Lkl-n1v4",
         "types" : [ "street_address" ]
      }
   ],
   "status" : "OK"
}
