{
   "results" : [
      {
         "address_components" : [
            {
               "long_name" : "48D",
               "short_name" : "48D",
               "types" : [ "street_number" ]
            },
            {
               "long_name" : "Ahlgade",
               "short_name" : "Ahlgade",
               "types" : [ "route" ]
            },
            {
               "long_name" : "Holbæk",
               "short_name" : "Holbæk",
               "types" : [ "locality", "political" ]
            },
            {
               "long_name" : "Denmark",
               "short_name" : "DK",
               "types" : [ "country", "political" ]
            },
            {
               "long_name" : "4300",
               "short_name" : "4300",
               "types" : [ "postal_code" ]
            }
         ],
         "formatted_address" : "Ahlgade 48D, 4300 Holbæk, Denmark",
         "geometry" : {
            "location" : {
               "lat" : 55.71736,
               "lng" : 11.712834
            },
            "location_type" : "ROOFTOP",
            "viewport" : {
               "northeast" : {
                  "lat" : 55.7187089802915,
                  "lng" : 11.7141829802915
               },
               "southwest" : {
                  "lat" : 55.7160110197085,
                  "lng" : 11.7114850197085
               }
            }
         },
         "place_id" : "ChIJKSoY3xt8UkYRVP2O8Wfnldc",
         "types" : [ "street_address" ]
      }
   ],
   "status" : "OK"
}
