{
   "results" : [
      {
         "address_components" : [
            {
               "long_name" : "21",
               "short_name" : "21",
               "types" : [ "street_number" ]
            },
            {
               "long_name" : "Kornmarksvej",
               "short_name" : "Kornmarksvej",
               "types" : [ "route" ]
            },
            {
               "long_name" : "Brøndby",
               "short_name" : "Brøndby",
               "types" : [ "locality", "political" ]
            },
            {
               "long_name" : "Denmark",
               "short_name" : "DK",
               "types" : [ "country", "political" ]
            },
            {
               "long_name" : "2605",
               "short_name" : "2605",
               "types" : [ "postal_code" ]
            }
         ],
         "formatted_address" : "Kornmarksvej 21, 2605 Brøndby, Denmark",
         "geometry" : {
            "location" : {
               "lat" : 55.652998,
               "lng" : 12.37193
            },
            "location_type" : "ROOFTOP",
            "viewport" : {
               "northeast" : {
                  "lat" : 55.65434698029149,
                  "lng" : 12.3732789802915
               },
               "southwest" : {
                  "lat" : 55.65164901970849,
                  "lng" : 12.3705810197085
               }
            }
         },
         "place_id" : "ChIJ4bCBQUdXUkYRO8kyH4pS4D8",
         "types" : [ "street_address" ]
      }
   ],
   "status" : "OK"
}
