{
   "results" : [
      {
         "address_components" : [
            {
               "long_name" : "29",
               "short_name" : "29",
               "types" : [ "street_number" ]
            },
            {
               "long_name" : "Industrivej",
               "short_name" : "Industrivej",
               "types" : [ "route" ]
            },
            {
               "long_name" : "Ikast",
               "short_name" : "Ikast",
               "types" : [ "locality", "political" ]
            },
            {
               "long_name" : "Denmark",
               "short_name" : "DK",
               "types" : [ "country", "political" ]
            },
            {
               "long_name" : "7430",
               "short_name" : "7430",
               "types" : [ "postal_code" ]
            }
         ],
         "formatted_address" : "Industrivej 29, 7430 Ikast, Denmark",
         "geometry" : {
            "location" : {
               "lat" : 56.125029,
               "lng" : 9.1714559
            },
            "location_type" : "ROOFTOP",
            "viewport" : {
               "northeast" : {
                  "lat" : 56.1263779802915,
                  "lng" : 9.172804880291501
               },
               "southwest" : {
                  "lat" : 56.1236800197085,
                  "lng" : 9.170106919708498
               }
            }
         },
         "place_id" : "ChIJ-7iqzH2WS0YRAwnp1XypuKE",
         "types" : [ "street_address" ]
      }
   ],
   "status" : "OK"
}
