{
   "results" : [
      {
         "address_components" : [
            {
               "long_name" : "21",
               "short_name" : "21",
               "types" : [ "street_number" ]
            },
            {
               "long_name" : "Ballevej",
               "short_name" : "Ballevej",
               "types" : [ "route" ]
            },
            {
               "long_name" : "Odder",
               "short_name" : "Odder",
               "types" : [ "locality", "political" ]
            },
            {
               "long_name" : "Denmark",
               "short_name" : "DK",
               "types" : [ "country", "political" ]
            },
            {
               "long_name" : "8300",
               "short_name" : "8300",
               "types" : [ "postal_code" ]
            }
         ],
         "formatted_address" : "Ballevej 21, 8300 Odder, Denmark",
         "geometry" : {
            "location" : {
               "lat" : 55.98561,
               "lng" : 10.140938
            },
            "location_type" : "ROOFTOP",
            "viewport" : {
               "northeast" : {
                  "lat" : 55.9869589802915,
                  "lng" : 10.1422869802915
               },
               "southwest" : {
                  "lat" : 55.98426101970851,
                  "lng" : 10.1395890197085
               }
            }
         },
         "place_id" : "ChIJNTGZKMJCTEYRju-Q861vCms",
         "types" : [ "street_address" ]
      }
   ],
   "status" : "OK"
}
