{
   "results" : [
      {
         "address_components" : [
            {
               "long_name" : "2",
               "short_name" : "2",
               "types" : [ "street_number" ]
            },
            {
               "long_name" : "Kastanie Alle",
               "short_name" : "Kastanie Alle",
               "types" : [ "route" ]
            },
            {
               "long_name" : "Sønderborg",
               "short_name" : "Sønderborg",
               "types" : [ "locality", "political" ]
            },
            {
               "long_name" : "Denmark",
               "short_name" : "DK",
               "types" : [ "country", "political" ]
            },
            {
               "long_name" : "6400",
               "short_name" : "6400",
               "types" : [ "postal_code" ]
            }
         ],
         "formatted_address" : "Kastanie Alle 2, 6400 Sønderborg, Denmark",
         "geometry" : {
            "location" : {
               "lat" : 54.9099631,
               "lng" : 9.7915203
            },
            "location_type" : "ROOFTOP",
            "viewport" : {
               "northeast" : {
                  "lat" : 54.91131208029149,
                  "lng" : 9.792869280291503
               },
               "southwest" : {
                  "lat" : 54.9086141197085,
                  "lng" : 9.790171319708499
               }
            }
         },
         "place_id" : "ChIJ7asnXN05s0cRjtBDmvqRfk0",
         "types" : [ "street_address" ]
      }
   ],
   "status" : "OK"
}
