{
   "results" : [
      {
         "address_components" : [
            {
               "long_name" : "51",
               "short_name" : "51",
               "types" : [ "street_number" ]
            },
            {
               "long_name" : "Vermlandsgade",
               "short_name" : "Vermlandsgade",
               "types" : [ "route" ]
            },
            {
               "long_name" : "København S",
               "short_name" : "København S",
               "types" : [ "political", "sublocality", "sublocality_level_1" ]
            },
            {
               "long_name" : "København",
               "short_name" : "København",
               "types" : [ "locality", "political" ]
            },
            {
               "long_name" : "Denmark",
               "short_name" : "DK",
               "types" : [ "country", "political" ]
            },
            {
               "long_name" : "2300",
               "short_name" : "2300",
               "types" : [ "postal_code" ]
            }
         ],
         "formatted_address" : "Vermlandsgade 51, 2300 København S, Denmark",
         "geometry" : {
            "location" : {
               "lat" : 55.668537,
               "lng" : 12.6074755
            },
            "location_type" : "ROOFTOP",
            "viewport" : {
               "northeast" : {
                  "lat" : 55.6698859802915,
                  "lng" : 12.6088244802915
               },
               "southwest" : {
                  "lat" : 55.6671880197085,
                  "lng" : 12.6061265197085
               }
            }
         },
         "place_id" : "ChIJ3xXuDDZTUkYRaemGvhFnlk8",
         "types" : [ "street_address" ]
      }
   ],
   "status" : "OK"
}
