{
   "results" : [
      {
         "address_components" : [
            {
               "long_name" : "1",
               "short_name" : "1",
               "types" : [ "street_number" ]
            },
            {
               "long_name" : "Bispensgade",
               "short_name" : "Bispensgade",
               "types" : [ "route" ]
            },
            {
               "long_name" : "Aalborg Centrum",
               "short_name" : "Aalborg Centrum",
               "types" : [ "political", "sublocality", "sublocality_level_1" ]
            },
            {
               "long_name" : "Aalborg",
               "short_name" : "Aalborg",
               "types" : [ "locality", "political" ]
            },
            {
               "long_name" : "Denmark",
               "short_name" : "DK",
               "types" : [ "country", "political" ]
            },
            {
               "long_name" : "9000",
               "short_name" : "9000",
               "types" : [ "postal_code" ]
            }
         ],
         "formatted_address" : "Bispensgade 1, 9000 Aalborg, Denmark",
         "geometry" : {
            "bounds" : {
               "northeast" : {
                  "lat" : 57.049197,
                  "lng" : 9.9217437
               },
               "southwest" : {
                  "lat" : 57.0488285,
                  "lng" : 9.921058499999999
               }
            },
            "location" : {
               "lat" : 57.0490128,
               "lng" : 9.921401099999999
            },
            "location_type" : "ROOFTOP",
            "viewport" : {
               "northeast" : {
                  "lat" : 57.0503617302915,
                  "lng" : 9.922750080291502
               },
               "southwest" : {
                  "lat" : 57.0476637697085,
                  "lng" : 9.920052119708497
               }
            }
         },
         "place_id" : "ChIJW9ql6IwySUYR1eMNboQJqWI",
         "types" : [ "premise" ]
      }
   ],
   "status" : "OK"
}
