{
   "results" : [
      {
         "address_components" : [
            {
               "long_name" : "1",
               "short_name" : "1",
               "types" : [ "street_number" ]
            },
            {
               "long_name" : "Bjergegade",
               "short_name" : "Bjergegade",
               "types" : [ "route" ]
            },
            {
               "long_name" : "Helsingør",
               "short_name" : "Helsingør",
               "types" : [ "locality", "political" ]
            },
            {
               "long_name" : "Denmark",
               "short_name" : "DK",
               "types" : [ "country", "political" ]
            },
            {
               "long_name" : "3000",
               "short_name" : "3000",
               "types" : [ "postal_code" ]
            }
         ],
         "formatted_address" : "Bjergegade 1, 3000 Helsingør, Denmark",
         "geometry" : {
            "location" : {
               "lat" : 56.0347551,
               "lng" : 12.6122558
            },
            "location_type" : "ROOFTOP",
            "viewport" : {
               "northeast" : {
                  "lat" : 56.03610408029149,
                  "lng" : 12.6136047802915
               },
               "southwest" : {
                  "lat" : 56.03340611970849,
                  "lng" : 12.6109068197085
               }
            }
         },
         "place_id" : "ChIJMd3FORExUkYRjLi0KTTWQHk",
         "types" : [ "street_address" ]
      }
   ],
   "status" : "OK"
}
