{
   "results" : [
      {
         "address_components" : [
            {
               "long_name" : "64A",
               "short_name" : "64A",
               "types" : [ "street_number" ]
            },
            {
               "long_name" : "Strandvejen",
               "short_name" : "Strandvejen",
               "types" : [ "route" ]
            },
            {
               "long_name" : "Hellerup",
               "short_name" : "Hellerup",
               "types" : [ "locality", "political" ]
            },
            {
               "long_name" : "Denmark",
               "short_name" : "DK",
               "types" : [ "country", "political" ]
            },
            {
               "long_name" : "2900",
               "short_name" : "2900",
               "types" : [ "postal_code" ]
            }
         ],
         "formatted_address" : "Strandvejen 64A, 2900 Hellerup, Denmark",
         "geometry" : {
            "location" : {
               "lat" : 55.727656,
               "lng" : 12.576286
            },
            "location_type" : "ROOFTOP",
            "viewport" : {
               "northeast" : {
                  "lat" : 55.72900498029151,
                  "lng" : 12.5776349802915
               },
               "southwest" : {
                  "lat" : 55.72630701970851,
                  "lng" : 12.5749370197085
               }
            }
         },
         "place_id" : "ChIJSZB4W31SUkYRlKen5ppTIl4",
         "types" : [ "street_address" ]
      }
   ],
   "status" : "OK"
}
