{
   "results" : [
      {
         "address_components" : [
            {
               "long_name" : "2B",
               "short_name" : "2B",
               "types" : [ "street_number" ]
            },
            {
               "long_name" : "Østergade",
               "short_name" : "Østergade",
               "types" : [ "route" ]
            },
            {
               "long_name" : "Fjerritslev",
               "short_name" : "Fjerritslev",
               "types" : [ "locality", "political" ]
            },
            {
               "long_name" : "Denmark",
               "short_name" : "DK",
               "types" : [ "country", "political" ]
            },
            {
               "long_name" : "9690",
               "short_name" : "9690",
               "types" : [ "postal_code" ]
            }
         ],
         "formatted_address" : "Østergade 2B, 9690 Fjerritslev, Denmark",
         "geometry" : {
            "location" : {
               "lat" : 57.0880859,
               "lng" : 9.2674159
            },
            "location_type" : "ROOFTOP",
            "viewport" : {
               "northeast" : {
                  "lat" : 57.08943488029149,
                  "lng" : 9.268764880291503
               },
               "southwest" : {
                  "lat" : 57.0867369197085,
                  "lng" : 9.266066919708498
               }
            }
         },
         "place_id" : "ChIJMXnMPvAQSUYRlpe0Mg48F08",
         "types" : [ "street_address" ]
      }
   ],
   "status" : "OK"
}
