{
   "results" : [
      {
         "address_components" : [
            {
               "long_name" : "4A",
               "short_name" : "4A",
               "types" : [ "street_number" ]
            },
            {
               "long_name" : "Slotsgade",
               "short_name" : "Slotsgade",
               "types" : [ "route" ]
            },
            {
               "long_name" : "Slagelse",
               "short_name" : "Slagelse",
               "types" : [ "locality", "political" ]
            },
            {
               "long_name" : "Denmark",
               "short_name" : "DK",
               "types" : [ "country", "political" ]
            },
            {
               "long_name" : "4200",
               "short_name" : "4200",
               "types" : [ "postal_code" ]
            }
         ],
         "formatted_address" : "Slotsgade 4A, 4200 Slagelse, Denmark",
         "geometry" : {
            "location" : {
               "lat" : 55.40198609999999,
               "lng" : 11.3543633
            },
            "location_type" : "ROOFTOP",
            "viewport" : {
               "northeast" : {
                  "lat" : 55.4033350802915,
                  "lng" : 11.3557122802915
               },
               "southwest" : {
                  "lat" : 55.4006371197085,
                  "lng" : 11.3530143197085
               }
            }
         },
         "place_id" : "ChIJh7SLnHthTUYRBxWUro_pM8A",
         "types" : [ "street_address" ]
      }
   ],
   "status" : "OK"
}
