{
   "results" : [
      {
         "address_components" : [
            {
               "long_name" : "8",
               "short_name" : "8",
               "types" : [ "street_number" ]
            },
            {
               "long_name" : "Centerholmen",
               "short_name" : "Centerholmen",
               "types" : [ "route" ]
            },
            {
               "long_name" : "Greve",
               "short_name" : "Greve",
               "types" : [ "locality", "political" ]
            },
            {
               "long_name" : "Denmark",
               "short_name" : "DK",
               "types" : [ "country", "political" ]
            },
            {
               "long_name" : "2670",
               "short_name" : "2670",
               "types" : [ "postal_code" ]
            }
         ],
         "formatted_address" : "Centerholmen 8, 2670 Greve, Denmark",
         "geometry" : {
            "location" : {
               "lat" : 55.5816233,
               "lng" : 12.292554
            },
            "location_type" : "RANGE_INTERPOLATED",
            "viewport" : {
               "northeast" : {
                  "lat" : 55.58297228029149,
                  "lng" : 12.2939029802915
               },
               "southwest" : {
                  "lat" : 55.58027431970849,
                  "lng" : 12.2912050197085
               }
            }
         },
         "partial_match" : true,
         "place_id" : "EiNDZW50ZXJob2xtZW4gOCwgMjY3MCBHcmV2ZSwgRGFubWFyayIaEhgKFAoSCSErAZr891JGEdB6K02dLfDbEAg",
         "types" : [ "street_address" ]
      }
   ],
   "status" : "OK"
}
