{
   "results" : [
      {
         "address_components" : [
            {
               "long_name" : "70",
               "short_name" : "70",
               "types" : [ "street_number" ]
            },
            {
               "long_name" : "Adelgade",
               "short_name" : "Adelgade",
               "types" : [ "route" ]
            },
            {
               "long_name" : "Præstø",
               "short_name" : "Præstø",
               "types" : [ "locality", "political" ]
            },
            {
               "long_name" : "Denmark",
               "short_name" : "DK",
               "types" : [ "country", "political" ]
            },
            {
               "long_name" : "4720",
               "short_name" : "4720",
               "types" : [ "postal_code" ]
            }
         ],
         "formatted_address" : "Adelgade 70, 4720 Præstø, Denmark",
         "geometry" : {
            "location" : {
               "lat" : 55.121862,
               "lng" : 12.0416302
            },
            "location_type" : "ROOFTOP",
            "viewport" : {
               "northeast" : {
                  "lat" : 55.1232109802915,
                  "lng" : 12.0429791802915
               },
               "southwest" : {
                  "lat" : 55.1205130197085,
                  "lng" : 12.0402812197085
               }
            }
         },
         "place_id" : "ChIJGe608vzEUkYRlfA4dGWelA8",
         "types" : [ "street_address" ]
      }
   ],
   "status" : "OK"
}
