{
   "results" : [
      {
         "address_components" : [
            {
               "long_name" : "1",
               "short_name" : "1",
               "types" : [ "street_number" ]
            },
            {
               "long_name" : "C. E. Christiansens Vej",
               "short_name" : "153",
               "types" : [ "route" ]
            },
            {
               "long_name" : "Maribo",
               "short_name" : "Maribo",
               "types" : [ "locality", "political" ]
            },
            {
               "long_name" : "Denmark",
               "short_name" : "DK",
               "types" : [ "country", "political" ]
            },
            {
               "long_name" : "4930",
               "short_name" : "4930",
               "types" : [ "postal_code" ]
            }
         ],
         "formatted_address" : "C. E. Christiansens Vej 1, 4930 Maribo, Denmark",
         "geometry" : {
            "location" : {
               "lat" : 54.779385,
               "lng" : 11.500319
            },
            "location_type" : "ROOFTOP",
            "viewport" : {
               "northeast" : {
                  "lat" : 54.7807339802915,
                  "lng" : 11.5016679802915
               },
               "southwest" : {
                  "lat" : 54.7780360197085,
                  "lng" : 11.4989700197085
               }
            }
         },
         "place_id" : "ChIJw7fKhHpPrUcRoQ4S9TPXe04",
         "types" : [ "street_address" ]
      }
   ],
   "status" : "OK"
}
