{
   "results" : [
      {
         "address_components" : [
            {
               "long_name" : "4",
               "short_name" : "4",
               "types" : [ "street_number" ]
            },
            {
               "long_name" : "Skomagergade",
               "short_name" : "Skomagergade",
               "types" : [ "route" ]
            },
            {
               "long_name" : "Nibe",
               "short_name" : "Nibe",
               "types" : [ "locality", "political" ]
            },
            {
               "long_name" : "Denmark",
               "short_name" : "DK",
               "types" : [ "country", "political" ]
            },
            {
               "long_name" : "9240",
               "short_name" : "9240",
               "types" : [ "postal_code" ]
            }
         ],
         "formatted_address" : "Skomagergade 4, 9240 Nibe, Denmark",
         "geometry" : {
            "location" : {
               "lat" : 56.981609,
               "lng" : 9.636678999999999
            },
            "location_type" : "ROOFTOP",
            "viewport" : {
               "northeast" : {
                  "lat" : 56.9829579802915,
                  "lng" : 9.638027980291502
               },
               "southwest" : {
                  "lat" : 56.9802600197085,
                  "lng" : 9.635330019708498
               }
            }
         },
         "place_id" : "ChIJ00pr_5Y5SUYRfOtuZLgCg-o",
         "types" : [ "street_address" ]
      }
   ],
   "status" : "OK"
}
