{
   "results" : [
      {
         "address_components" : [
            {
               "long_name" : "2",
               "short_name" : "2",
               "types" : [ "street_number" ]
            },
            {
               "long_name" : "Otto Mønsteds Vej",
               "short_name" : "Otto Mønsteds Vej",
               "types" : [ "route" ]
            },
            {
               "long_name" : "Aalborg SV",
               "short_name" : "Aalborg SV",
               "types" : [ "political", "sublocality", "sublocality_level_1" ]
            },
            {
               "long_name" : "Aalborg",
               "short_name" : "Aalborg",
               "types" : [ "locality", "political" ]
            },
            {
               "long_name" : "Denmark",
               "short_name" : "DK",
               "types" : [ "country", "political" ]
            },
            {
               "long_name" : "9200",
               "short_name" : "9200",
               "types" : [ "postal_code" ]
            }
         ],
         "formatted_address" : "Otto Mønsteds Vej 2, 9200 Aalborg SV, Denmark",
         "geometry" : {
            "location" : {
               "lat" : 57.014362,
               "lng" : 9.8965
            },
            "location_type" : "ROOFTOP",
            "viewport" : {
               "northeast" : {
                  "lat" : 57.0157109802915,
                  "lng" : 9.897848980291501
               },
               "southwest" : {
                  "lat" : 57.0130130197085,
                  "lng" : 9.895151019708496
               }
            }
         },
         "place_id" : "ChIJcTv796czSUYRTLwA6UHX4zY",
         "types" : [ "street_address" ]
      }
   ],
   "status" : "OK"
}
