{
   "results" : [
      {
         "address_components" : [
            {
               "long_name" : "10",
               "short_name" : "10",
               "types" : [ "street_number" ]
            },
            {
               "long_name" : "Sankt Marcus Kirkeplads",
               "short_name" : "Skt. Marcus Kirkeplads",
               "types" : [ "route" ]
            },
            {
               "long_name" : "Aarhus C",
               "short_name" : "Aarhus C",
               "types" : [ "political", "sublocality", "sublocality_level_1" ]
            },
            {
               "long_name" : "Aarhus",
               "short_name" : "Aarhus",
               "types" : [ "locality", "political" ]
            },
            {
               "long_name" : "Denmark",
               "short_name" : "DK",
               "types" : [ "country", "political" ]
            },
            {
               "long_name" : "8000",
               "short_name" : "8000",
               "types" : [ "postal_code" ]
            }
         ],
         "formatted_address" : "Skt. Marcus Kirkeplads 10, 8000 Aarhus C, Denmark",
         "geometry" : {
            "location" : {
               "lat" : 56.16071299999999,
               "lng" : 10.198423
            },
            "location_type" : "ROOFTOP",
            "viewport" : {
               "northeast" : {
                  "lat" : 56.16206198029149,
                  "lng" : 10.1997719802915
               },
               "southwest" : {
                  "lat" : 56.1593640197085,
                  "lng" : 10.1970740197085
               }
            }
         },
         "partial_match" : true,
         "place_id" : "ChIJdRn53uo_TEYRpckEKwrfCys",
         "types" : [ "street_address" ]
      }
   ],
   "status" : "OK"
}
