{
   "results" : [
      {
         "address_components" : [
            {
               "long_name" : "14",
               "short_name" : "14",
               "types" : [ "street_number" ]
            },
            {
               "long_name" : "Linnésgade",
               "short_name" : "Linnésgade",
               "types" : [ "route" ]
            },
            {
               "long_name" : "København K",
               "short_name" : "København K",
               "types" : [ "political", "sublocality", "sublocality_level_1" ]
            },
            {
               "long_name" : "København",
               "short_name" : "København",
               "types" : [ "locality", "political" ]
            },
            {
               "long_name" : "Denmark",
               "short_name" : "DK",
               "types" : [ "country", "political" ]
            },
            {
               "long_name" : "1361",
               "short_name" : "1361",
               "types" : [ "postal_code" ]
            }
         ],
         "formatted_address" : "Linnésgade 14, 1361 København, Denmark",
         "geometry" : {
            "location" : {
               "lat" : 55.6834108,
               "lng" : 12.5701342
            },
            "location_type" : "ROOFTOP",
            "viewport" : {
               "northeast" : {
                  "lat" : 55.68475978029149,
                  "lng" : 12.5714831802915
               },
               "southwest" : {
                  "lat" : 55.68206181970849,
                  "lng" : 12.5687852197085
               }
            }
         },
         "partial_match" : true,
         "place_id" : "ChIJIZlmawVTUkYRq_uZxKAvcaA",
         "types" : [ "street_address" ]
      }
   ],
   "status" : "OK"
}
