{
   "results" : [
      {
         "address_components" : [
            {
               "long_name" : "12",
               "short_name" : "12",
               "types" : [ "street_number" ]
            },
            {
               "long_name" : "Banegårdspladsen",
               "short_name" : "Banegårdspladsen",
               "types" : [ "route" ]
            },
            {
               "long_name" : "Aarhus C",
               "short_name" : "Aarhus C",
               "types" : [ "political", "sublocality", "sublocality_level_1" ]
            },
            {
               "long_name" : "Aarhus",
               "short_name" : "Aarhus",
               "types" : [ "locality", "political" ]
            },
            {
               "long_name" : "Denmark",
               "short_name" : "DK",
               "types" : [ "country", "political" ]
            },
            {
               "long_name" : "8000",
               "short_name" : "8000",
               "types" : [ "postal_code" ]
            }
         ],
         "formatted_address" : "Banegårdspladsen 12, 8000 Aarhus C, Denmark",
         "geometry" : {
            "location" : {
               "lat" : 56.1510706,
               "lng" : 10.203444
            },
            "location_type" : "ROOFTOP",
            "viewport" : {
               "northeast" : {
                  "lat" : 56.1524195802915,
                  "lng" : 10.2047929802915
               },
               "southwest" : {
                  "lat" : 56.1497216197085,
                  "lng" : 10.2020950197085
               }
            }
         },
         "place_id" : "ChIJ3XC5740_TEYRImz5ZuguvpA",
         "types" : [ "street_address" ]
      }
   ],
   "status" : "OK"
}
