{
   "results" : [
      {
         "address_components" : [
            {
               "long_name" : "12",
               "short_name" : "12",
               "types" : [ "street_number" ]
            },
            {
               "long_name" : "Fiskergangen",
               "short_name" : "Fiskergangen",
               "types" : [ "route" ]
            },
            {
               "long_name" : "Skagen",
               "short_name" : "Skagen",
               "types" : [ "locality", "political" ]
            },
            {
               "long_name" : "Denmark",
               "short_name" : "DK",
               "types" : [ "country", "political" ]
            },
            {
               "long_name" : "9990",
               "short_name" : "9990",
               "types" : [ "postal_code" ]
            }
         ],
         "formatted_address" : "Fiskergangen 12, 9990 Skagen, Denmark",
         "geometry" : {
            "location" : {
               "lat" : 57.7187024,
               "lng" : 10.5844551
            },
            "location_type" : "ROOFTOP",
            "viewport" : {
               "northeast" : {
                  "lat" : 57.7200513802915,
                  "lng" : 10.5858040802915
               },
               "southwest" : {
                  "lat" : 57.71735341970849,
                  "lng" : 10.5831061197085
               }
            }
         },
         "place_id" : "ChIJHcQYeR5FT0YRgbWJMGopCgA",
         "types" : [ "street_address" ]
      }
   ],
   "status" : "OK"
}
