{
   "results" : [
      {
         "address_components" : [
            {
               "long_name" : "32",
               "short_name" : "32",
               "types" : [ "street_number" ]
            },
            {
               "long_name" : "Nørregade",
               "short_name" : "Nørregade",
               "types" : [ "route" ]
            },
            {
               "long_name" : "Aarhus C",
               "short_name" : "Aarhus C",
               "types" : [ "political", "sublocality", "sublocality_level_1" ]
            },
            {
               "long_name" : "Aarhus",
               "short_name" : "Aarhus",
               "types" : [ "locality", "political" ]
            },
            {
               "long_name" : "Denmark",
               "short_name" : "DK",
               "types" : [ "country", "political" ]
            },
            {
               "long_name" : "8000",
               "short_name" : "8000",
               "types" : [ "postal_code" ]
            }
         ],
         "formatted_address" : "Nørregade 32, 8000 Aarhus C, Denmark",
         "geometry" : {
            "location" : {
               "lat" : 56.160832,
               "lng" : 10.209263
            },
            "location_type" : "ROOFTOP",
            "viewport" : {
               "northeast" : {
                  "lat" : 56.1621809802915,
                  "lng" : 10.2106119802915
               },
               "southwest" : {
                  "lat" : 56.1594830197085,
                  "lng" : 10.2079140197085
               }
            }
         },
         "place_id" : "ChIJWRBVcpY_TEYR50XPbJPrUqA",
         "types" : [ "street_address" ]
      }
   ],
   "status" : "OK"
}
