{
   "results" : [
      {
         "address_components" : [
            {
               "long_name" : "1360",
               "short_name" : "1360",
               "types" : [ "postal_code" ]
            },
            {
               "long_name" : "København K",
               "short_name" : "København K",
               "types" : [ "political", "sublocality", "sublocality_level_1" ]
            },
            {
               "long_name" : "København",
               "short_name" : "København",
               "types" : [ "locality", "political" ]
            },
            {
               "long_name" : "Denmark",
               "short_name" : "DK",
               "types" : [ "country", "political" ]
            }
         ],
         "formatted_address" : "1360 København K, Denmark",
         "geometry" : {
            "bounds" : {
               "northeast" : {
                  "lat" : 55.6862267,
                  "lng" : 12.573856
               },
               "southwest" : {
                  "lat" : 55.68254229999999,
                  "lng" : 12.5654259
               }
            },
            "location" : {
               "lat" : 55.6854725,
               "lng" : 12.5666087
            },
            "location_type" : "APPROXIMATE",
            "viewport" : {
               "northeast" : {
                  "lat" : 55.6862267,
                  "lng" : 12.573856
               },
               "southwest" : {
                  "lat" : 55.68254229999999,
                  "lng" : 12.5654259
               }
            }
         },
         "place_id" : "ChIJdVG_BQVTUkYRyLhMQFz0uvQ",
         "types" : [ "postal_code" ]
      }
   ],
   "status" : "OK"
}
