{
   "results" : [
      {
         "address_components" : [
            {
               "long_name" : "2",
               "short_name" : "2",
               "types" : [ "street_number" ]
            },
            {
               "long_name" : "Pakkerivej",
               "short_name" : "Pakkerivej",
               "types" : [ "route" ]
            },
            {
               "long_name" : "Aarhus C",
               "short_name" : "Aarhus C",
               "types" : [ "political", "sublocality", "sublocality_level_1" ]
            },
            {
               "long_name" : "Aarhus",
               "short_name" : "Aarhus",
               "types" : [ "locality", "political" ]
            },
            {
               "long_name" : "Denmark",
               "short_name" : "DK",
               "types" : [ "country", "political" ]
            },
            {
               "long_name" : "8000",
               "short_name" : "8000",
               "types" : [ "postal_code" ]
            }
         ],
         "formatted_address" : "Pakkerivej 2, 8000 Aarhus C, Denmark",
         "geometry" : {
            "location" : {
               "lat" : 56.16487,
               "lng" : 10.219052
            },
            "location_type" : "ROOFTOP",
            "viewport" : {
               "northeast" : {
                  "lat" : 56.1662189802915,
                  "lng" : 10.2204009802915
               },
               "southwest" : {
                  "lat" : 56.1635210197085,
                  "lng" : 10.2177030197085
               }
            }
         },
         "place_id" : "ChIJZ-XfLqM_TEYRJh_WpdjeJqM",
         "types" : [ "street_address" ]
      }
   ],
   "status" : "OK"
}
