{
   "results" : [
      {
         "address_components" : [
            {
               "long_name" : "10",
               "short_name" : "10",
               "types" : [ "street_number" ]
            },
            {
               "long_name" : "Hovedgaden",
               "short_name" : "Hovedgaden",
               "types" : [ "route" ]
            },
            {
               "long_name" : "Hårlev",
               "short_name" : "Hårlev",
               "types" : [ "locality", "political" ]
            },
            {
               "long_name" : "Denmark",
               "short_name" : "DK",
               "types" : [ "country", "political" ]
            },
            {
               "long_name" : "4652",
               "short_name" : "4652",
               "types" : [ "postal_code" ]
            }
         ],
         "formatted_address" : "Hovedgaden 10, 4652 Hårlev, Denmark",
         "geometry" : {
            "location" : {
               "lat" : 55.3523194,
               "lng" : 12.2343915
            },
            "location_type" : "ROOFTOP",
            "viewport" : {
               "northeast" : {
                  "lat" : 55.3536683802915,
                  "lng" : 12.2357404802915
               },
               "southwest" : {
                  "lat" : 55.3509704197085,
                  "lng" : 12.2330425197085
               }
            }
         },
         "place_id" : "ChIJVVXFk73lUkYRB9DjFHhGJMs",
         "types" : [ "street_address" ]
      }
   ],
   "status" : "OK"
}
