{
   "results" : [
      {
         "address_components" : [
            {
               "long_name" : "81",
               "short_name" : "81",
               "types" : [ "street_number" ]
            },
            {
               "long_name" : "Bækkeskovvej",
               "short_name" : "Bækkeskovvej",
               "types" : [ "route" ]
            },
            {
               "long_name" : "Brønshøj",
               "short_name" : "Brønshøj",
               "types" : [ "political", "sublocality", "sublocality_level_1" ]
            },
            {
               "long_name" : "København",
               "short_name" : "København",
               "types" : [ "locality", "political" ]
            },
            {
               "long_name" : "Denmark",
               "short_name" : "DK",
               "types" : [ "country", "political" ]
            },
            {
               "long_name" : "2700",
               "short_name" : "2700",
               "types" : [ "postal_code" ]
            }
         ],
         "formatted_address" : "Bækkeskovvej 81, 2700 Brønshøj, Denmark",
         "geometry" : {
            "location" : {
               "lat" : 55.701715,
               "lng" : 12.492629
            },
            "location_type" : "ROOFTOP",
            "viewport" : {
               "northeast" : {
                  "lat" : 55.7030639802915,
                  "lng" : 12.4939779802915
               },
               "southwest" : {
                  "lat" : 55.7003660197085,
                  "lng" : 12.4912800197085
               }
            }
         },
         "place_id" : "ChIJy4wc1IFRUkYR51ntQjwOXYE",
         "types" : [ "street_address" ]
      }
   ],
   "status" : "OK"
}
