{
   "results" : [
      {
         "address_components" : [
            {
               "long_name" : "44",
               "short_name" : "44",
               "types" : [ "street_number" ]
            },
            {
               "long_name" : "Algade",
               "short_name" : "Algade",
               "types" : [ "route" ]
            },
            {
               "long_name" : "Korsør",
               "short_name" : "Korsør",
               "types" : [ "locality", "political" ]
            },
            {
               "long_name" : "Denmark",
               "short_name" : "DK",
               "types" : [ "country", "political" ]
            },
            {
               "long_name" : "4220",
               "short_name" : "4220",
               "types" : [ "postal_code" ]
            }
         ],
         "formatted_address" : "Algade 44, 4220 Korsør, Denmark",
         "geometry" : {
            "location" : {
               "lat" : 55.3295113,
               "lng" : 11.1378809
            },
            "location_type" : "ROOFTOP",
            "viewport" : {
               "northeast" : {
                  "lat" : 55.3308602802915,
                  "lng" : 11.1392298802915
               },
               "southwest" : {
                  "lat" : 55.3281623197085,
                  "lng" : 11.1365319197085
               }
            }
         },
         "place_id" : "ChIJsbkzPK1CTUYRbiAJf2bgSDA",
         "types" : [ "street_address" ]
      }
   ],
   "status" : "OK"
}
