{
   "results" : [
      {
         "address_components" : [
            {
               "long_name" : "Hamborg",
               "short_name" : "Hamborg",
               "types" : [ "route" ]
            },
            {
               "long_name" : "Hedensted",
               "short_name" : "Hedensted",
               "types" : [ "administrative_area_level_2", "political" ]
            },
            {
               "long_name" : "Denmark",
               "short_name" : "DK",
               "types" : [ "country", "political" ]
            },
            {
               "long_name" : "7130",
               "short_name" : "7130",
               "types" : [ "postal_code" ]
            }
         ],
         "formatted_address" : "Hamborg, 7130 Hedensted, Denmark",
         "geometry" : {
            "bounds" : {
               "northeast" : {
                  "lat" : 55.7785829,
                  "lng" : 10.0159219
               },
               "southwest" : {
                  "lat" : 55.77582,
                  "lng" : 10.0089639
               }
            },
            "location" : {
               "lat" : 55.7772179,
               "lng" : 10.0126339
            },
            "location_type" : "GEOMETRIC_CENTER",
            "viewport" : {
               "northeast" : {
                  "lat" : 55.7785829,
                  "lng" : 10.0159219
               },
               "southwest" : {
                  "lat" : 55.77582,
                  "lng" : 10.0089639
               }
            }
         },
         "partial_match" : true,
         "place_id" : "ChIJM9l4JrSKTEYRURF4GYY7kZg",
         "types" : [ "route" ]
      }
   ],
   "status" : "OK"
}
