{
   "results" : [
      {
         "address_components" : [
            {
               "long_name" : "37",
               "short_name" : "37",
               "types" : [ "street_number" ]
            },
            {
               "long_name" : "Havnegade",
               "short_name" : "Havnegade",
               "types" : [ "route" ]
            },
            {
               "long_name" : "Bandholm",
               "short_name" : "Bandholm",
               "types" : [ "locality", "political" ]
            },
            {
               "long_name" : "Denmark",
               "short_name" : "DK",
               "types" : [ "country", "political" ]
            },
            {
               "long_name" : "4941",
               "short_name" : "4941",
               "types" : [ "postal_code" ]
            }
         ],
         "formatted_address" : "Havnegade 37, 4941 Bandholm, Denmark",
         "geometry" : {
            "location" : {
               "lat" : 54.83675599999999,
               "lng" : 11.4854155
            },
            "location_type" : "ROOFTOP",
            "viewport" : {
               "northeast" : {
                  "lat" : 54.8381049802915,
                  "lng" : 11.4867644802915
               },
               "southwest" : {
                  "lat" : 54.8354070197085,
                  "lng" : 11.4840665197085
               }
            }
         },
         "place_id" : "ChIJN7iY4EFOrUcRmCScURcbVlw",
         "types" : [ "street_address" ]
      }
   ],
   "status" : "OK"
}
