{
   "results" : [
      {
         "address_components" : [
            {
               "long_name" : "10",
               "short_name" : "10",
               "types" : [ "street_number" ]
            },
            {
               "long_name" : "Jægersborggade",
               "short_name" : "Jægersborggade",
               "types" : [ "route" ]
            },
            {
               "long_name" : "København N",
               "short_name" : "København N",
               "types" : [ "political", "sublocality", "sublocality_level_1" ]
            },
            {
               "long_name" : "København",
               "short_name" : "København",
               "types" : [ "locality", "political" ]
            },
            {
               "long_name" : "Denmark",
               "short_name" : "DK",
               "types" : [ "country", "political" ]
            },
            {
               "long_name" : "2200",
               "short_name" : "2200",
               "types" : [ "postal_code" ]
            }
         ],
         "formatted_address" : "Jægersborggade 10, 2200 København N, Denmark",
         "geometry" : {
            "location" : {
               "lat" : 55.6920999,
               "lng" : 12.5450304
            },
            "location_type" : "ROOFTOP",
            "viewport" : {
               "northeast" : {
                  "lat" : 55.69344888029149,
                  "lng" : 12.5463793802915
               },
               "southwest" : {
                  "lat" : 55.69075091970849,
                  "lng" : 12.5436814197085
               }
            }
         },
         "place_id" : "ChIJr-QrlK1TUkYRyWxrSc__G5g",
         "types" : [ "street_address" ]
      }
   ],
   "status" : "OK"
}
