{
   "results" : [
      {
         "address_components" : [
            {
               "long_name" : "8",
               "short_name" : "8",
               "types" : [ "street_number" ]
            },
            {
               "long_name" : "Fiskebrogade",
               "short_name" : "Fiskebrogade",
               "types" : [ "route" ]
            },
            {
               "long_name" : "Esbjerg",
               "short_name" : "Esbjerg",
               "types" : [ "locality", "political" ]
            },
            {
               "long_name" : "Denmark",
               "short_name" : "DK",
               "types" : [ "country", "political" ]
            },
            {
               "long_name" : "6700",
               "short_name" : "6700",
               "types" : [ "postal_code" ]
            }
         ],
         "formatted_address" : "Fiskebrogade 8, 6700 Esbjerg, Denmark",
         "geometry" : {
            "location" : {
               "lat" : 55.47500890000001,
               "lng" : 8.4322591
            },
            "location_type" : "ROOFTOP",
            "viewport" : {
               "northeast" : {
                  "lat" : 55.47635788029151,
                  "lng" : 8.433608080291501
               },
               "southwest" : {
                  "lat" : 55.47365991970851,
                  "lng" : 8.430910119708496
               }
            }
         },
         "place_id" : "ChIJbT-VOM4gS0YRu3OLBw1bxSk",
         "types" : [ "street_address" ]
      }
   ],
   "status" : "OK"
}
