{
   "results" : [
      {
         "address_components" : [
            {
               "long_name" : "9",
               "short_name" : "9",
               "types" : [ "street_number" ]
            },
            {
               "long_name" : "Torvet",
               "short_name" : "Torvet",
               "types" : [ "route" ]
            },
            {
               "long_name" : "Sakskøbing",
               "short_name" : "Sakskøbing",
               "types" : [ "locality", "political" ]
            },
            {
               "long_name" : "Denmark",
               "short_name" : "DK",
               "types" : [ "country", "political" ]
            },
            {
               "long_name" : "4990",
               "short_name" : "4990",
               "types" : [ "postal_code" ]
            }
         ],
         "formatted_address" : "Torvet 9, 4990 Sakskøbing, Denmark",
         "geometry" : {
            "location" : {
               "lat" : 54.799568,
               "lng" : 11.634486
            },
            "location_type" : "ROOFTOP",
            "viewport" : {
               "northeast" : {
                  "lat" : 54.8009169802915,
                  "lng" : 11.6358349802915
               },
               "southwest" : {
                  "lat" : 54.7982190197085,
                  "lng" : 11.6331370197085
               }
            }
         },
         "place_id" : "ChIJZ-EXRlNIrUcRhs0_D2va1Mw",
         "types" : [ "street_address" ]
      }
   ],
   "status" : "OK"
}
