{
   "results" : [
      {
         "address_components" : [
            {
               "long_name" : "22",
               "short_name" : "22",
               "types" : [ "street_number" ]
            },
            {
               "long_name" : "Søndergade",
               "short_name" : "Søndergade",
               "types" : [ "route" ]
            },
            {
               "long_name" : "Horsens",
               "short_name" : "Horsens",
               "types" : [ "locality", "political" ]
            },
            {
               "long_name" : "Denmark",
               "short_name" : "DK",
               "types" : [ "country", "political" ]
            },
            {
               "long_name" : "8700",
               "short_name" : "8700",
               "types" : [ "postal_code" ]
            }
         ],
         "formatted_address" : "Søndergade 22, 8700 Horsens, Denmark",
         "geometry" : {
            "location" : {
               "lat" : 55.8617682,
               "lng" : 9.847526
            },
            "location_type" : "ROOFTOP",
            "viewport" : {
               "northeast" : {
                  "lat" : 55.8631171802915,
                  "lng" : 9.848874980291503
               },
               "southwest" : {
                  "lat" : 55.8604192197085,
                  "lng" : 9.846177019708499
               }
            }
         },
         "place_id" : "ChIJ863xOARjTEYR9uXzs5vxzzc",
         "types" : [ "street_address" ]
      }
   ],
   "status" : "OK"
}
