{
   "results" : [
      {
         "address_components" : [
            {
               "long_name" : "12",
               "short_name" : "12",
               "types" : [ "street_number" ]
            },
            {
               "long_name" : "Hadsundvej",
               "short_name" : "Hadsundvej",
               "types" : [ "route" ]
            },
            {
               "long_name" : "Aalborg",
               "short_name" : "Aalborg",
               "types" : [ "locality", "political" ]
            },
            {
               "long_name" : "Denmark",
               "short_name" : "DK",
               "types" : [ "country", "political" ]
            },
            {
               "long_name" : "9000",
               "short_name" : "9000",
               "types" : [ "postal_code" ]
            }
         ],
         "formatted_address" : "Hadsundvej 12, 9000 Aalborg, Denmark",
         "geometry" : {
            "bounds" : {
               "northeast" : {
                  "lat" : 57.0433384,
                  "lng" : 9.949856499999999
               },
               "southwest" : {
                  "lat" : 57.0431669,
                  "lng" : 9.949567499999999
               }
            },
            "location" : {
               "lat" : 57.0432526,
               "lng" : 9.949712
            },
            "location_type" : "ROOFTOP",
            "viewport" : {
               "northeast" : {
                  "lat" : 57.0446016302915,
                  "lng" : 9.951060980291501
               },
               "southwest" : {
                  "lat" : 57.0419036697085,
                  "lng" : 9.948363019708497
               }
            }
         },
         "place_id" : "ChIJXaFQy8AySUYR891BTJwVHDo",
         "types" : [ "premise" ]
      }
   ],
   "status" : "OK"
}
