{
   "results" : [
      {
         "address_components" : [
            {
               "long_name" : "29",
               "short_name" : "29",
               "types" : [ "street_number" ]
            },
            {
               "long_name" : "Rådhusbakken",
               "short_name" : "Rådhusbakken",
               "types" : [ "route" ]
            },
            {
               "long_name" : "Give",
               "short_name" : "Give",
               "types" : [ "locality", "political" ]
            },
            {
               "long_name" : "Denmark",
               "short_name" : "DK",
               "types" : [ "country", "political" ]
            },
            {
               "long_name" : "7323",
               "short_name" : "7323",
               "types" : [ "postal_code" ]
            }
         ],
         "formatted_address" : "Rådhusbakken 29, 7323 Give, Denmark",
         "geometry" : {
            "location" : {
               "lat" : 55.8465351,
               "lng" : 9.2342236
            },
            "location_type" : "ROOFTOP",
            "viewport" : {
               "northeast" : {
                  "lat" : 55.8478840802915,
                  "lng" : 9.235572580291501
               },
               "southwest" : {
                  "lat" : 55.8451861197085,
                  "lng" : 9.232874619708497
               }
            }
         },
         "place_id" : "ChIJM_Ar0Nx3S0YRFEUypirVaJo",
         "types" : [ "street_address" ]
      }
   ],
   "status" : "OK"
}
