{
   "results" : [
      {
         "address_components" : [
            {
               "long_name" : "96",
               "short_name" : "96",
               "types" : [ "street_number" ]
            },
            {
               "long_name" : "Gunderupvej",
               "short_name" : "Gunderupvej",
               "types" : [ "route" ]
            },
            {
               "long_name" : "Farsø",
               "short_name" : "Farsø",
               "types" : [ "locality", "political" ]
            },
            {
               "long_name" : "Denmark",
               "short_name" : "DK",
               "types" : [ "country", "political" ]
            },
            {
               "long_name" : "9640",
               "short_name" : "9640",
               "types" : [ "postal_code" ]
            }
         ],
         "formatted_address" : "Gunderupvej 96, 9640 Farsø, Denmark",
         "geometry" : {
            "bounds" : {
               "northeast" : {
                  "lat" : 56.82411219999999,
                  "lng" : 9.238345499999999
               },
               "southwest" : {
                  "lat" : 56.82373089999999,
                  "lng" : 9.2377156
               }
            },
            "location" : {
               "lat" : 56.8239216,
               "lng" : 9.238030499999999
            },
            "location_type" : "ROOFTOP",
            "viewport" : {
               "northeast" : {
                  "lat" : 56.8252705302915,
                  "lng" : 9.239379530291503
               },
               "southwest" : {
                  "lat" : 56.8225725697085,
                  "lng" : 9.236681569708498
               }
            }
         },
         "place_id" : "ChIJh-nzBDdpSUYR0B8bcDoeXGE",
         "types" : [ "premise" ]
      }
   ],
   "status" : "OK"
}
