{
   "results" : [
      {
         "address_components" : [
            {
               "long_name" : "138",
               "short_name" : "138",
               "types" : [ "street_number" ]
            },
            {
               "long_name" : "Strandvejen",
               "short_name" : "Strandvejen",
               "types" : [ "route" ]
            },
            {
               "long_name" : "Hjørring",
               "short_name" : "Hjørring",
               "types" : [ "locality", "political" ]
            },
            {
               "long_name" : "Denmark",
               "short_name" : "DK",
               "types" : [ "country", "political" ]
            },
            {
               "long_name" : "9800",
               "short_name" : "9800",
               "types" : [ "postal_code" ]
            }
         ],
         "formatted_address" : "Strandvejen 138, 9800 Hjørring, Denmark",
         "geometry" : {
            "location" : {
               "lat" : 57.476718,
               "lng" : 9.796199
            },
            "location_type" : "ROOFTOP",
            "viewport" : {
               "northeast" : {
                  "lat" : 57.4780669802915,
                  "lng" : 9.797547980291503
               },
               "southwest" : {
                  "lat" : 57.47536901970849,
                  "lng" : 9.794850019708498
               }
            }
         },
         "place_id" : "ChIJAynuBePESEYReH2kHy5yfMI",
         "types" : [ "street_address" ]
      }
   ],
   "status" : "OK"
}
