{
   "results" : [
      {
         "address_components" : [
            {
               "long_name" : "12",
               "short_name" : "12",
               "types" : [ "street_number" ]
            },
            {
               "long_name" : "Krudtløbsvej",
               "short_name" : "Krudtløbsvej",
               "types" : [ "route" ]
            },
            {
               "long_name" : "København K",
               "short_name" : "København K",
               "types" : [ "political", "sublocality", "sublocality_level_1" ]
            },
            {
               "long_name" : "København",
               "short_name" : "København",
               "types" : [ "locality", "political" ]
            },
            {
               "long_name" : "Denmark",
               "short_name" : "DK",
               "types" : [ "country", "political" ]
            },
            {
               "long_name" : "1439",
               "short_name" : "1439",
               "types" : [ "postal_code" ]
            }
         ],
         "formatted_address" : "Krudtløbsvej 12, 1439 København K, Denmark",
         "geometry" : {
            "bounds" : {
               "northeast" : {
                  "lat" : 55.68415239999999,
                  "lng" : 12.6098839
               },
               "southwest" : {
                  "lat" : 55.6841506,
                  "lng" : 12.6098654
               }
            },
            "location" : {
               "lat" : 55.6841506,
               "lng" : 12.6098654
            },
            "location_type" : "RANGE_INTERPOLATED",
            "viewport" : {
               "northeast" : {
                  "lat" : 55.68550048029149,
                  "lng" : 12.6112236302915
               },
               "southwest" : {
                  "lat" : 55.6828025197085,
                  "lng" : 12.6085256697085
               }
            }
         },
         "partial_match" : true,
         "place_id" : "EixLcnVkdGzDuGJzdmVqIDEyLCAxNDM5IEvDuGJlbmhhdm4gSywgRGFubWFyaw",
         "types" : [ "street_address" ]
      }
   ],
   "status" : "OK"
}
