{
   "results" : [
      {
         "address_components" : [
            {
               "long_name" : "1B",
               "short_name" : "1B",
               "types" : [ "street_number" ]
            },
            {
               "long_name" : "Frederiksborggade",
               "short_name" : "Frederiksborggade",
               "types" : [ "route" ]
            },
            {
               "long_name" : "København K",
               "short_name" : "København K",
               "types" : [ "political", "sublocality", "sublocality_level_1" ]
            },
            {
               "long_name" : "København",
               "short_name" : "København",
               "types" : [ "locality", "political" ]
            },
            {
               "long_name" : "Denmark",
               "short_name" : "DK",
               "types" : [ "country", "political" ]
            },
            {
               "long_name" : "1360",
               "short_name" : "1360",
               "types" : [ "postal_code" ]
            }
         ],
         "formatted_address" : "Frederiksborggade 1B, 1360 København K, Denmark",
         "geometry" : {
            "location" : {
               "lat" : 55.68270099999999,
               "lng" : 12.573053
            },
            "location_type" : "ROOFTOP",
            "viewport" : {
               "northeast" : {
                  "lat" : 55.6840499802915,
                  "lng" : 12.5744019802915
               },
               "southwest" : {
                  "lat" : 55.6813520197085,
                  "lng" : 12.5717040197085
               }
            }
         },
         "partial_match" : true,
         "place_id" : "ChIJYw8LsRpTUkYRSnZqddWUOqA",
         "types" : [ "street_address" ]
      }
   ],
   "status" : "OK"
}
