{
   "results" : [
      {
         "address_components" : [
            {
               "long_name" : "5",
               "short_name" : "5",
               "types" : [ "street_number" ]
            },
            {
               "long_name" : "Vestergade",
               "short_name" : "Vestergade",
               "types" : [ "route" ]
            },
            {
               "long_name" : "Stoholm J",
               "short_name" : "Stoholm J",
               "types" : [ "political", "sublocality", "sublocality_level_1" ]
            },
            {
               "long_name" : "Stoholm",
               "short_name" : "Stoholm",
               "types" : [ "locality", "political" ]
            },
            {
               "long_name" : "Denmark",
               "short_name" : "DK",
               "types" : [ "country", "political" ]
            },
            {
               "long_name" : "7850",
               "short_name" : "7850",
               "types" : [ "postal_code" ]
            }
         ],
         "formatted_address" : "Vestergade 5, 7850 Viborg, Denmark",
         "geometry" : {
            "location" : {
               "lat" : 56.485491,
               "lng" : 9.150063099999999
            },
            "location_type" : "ROOFTOP",
            "viewport" : {
               "northeast" : {
                  "lat" : 56.4868399802915,
                  "lng" : 9.151412080291502
               },
               "southwest" : {
                  "lat" : 56.4841420197085,
                  "lng" : 9.148714119708497
               }
            }
         },
         "place_id" : "ChIJiYHe-STcS0YRaRVphLyTITA",
         "types" : [ "street_address" ]
      }
   ],
   "status" : "OK"
}
