{
   "results" : [
      {
         "address_components" : [
            {
               "long_name" : "8",
               "short_name" : "8",
               "types" : [ "street_number" ]
            },
            {
               "long_name" : "Jernbanegade",
               "short_name" : "Jernbanegade",
               "types" : [ "route" ]
            },
            {
               "long_name" : "Odense C",
               "short_name" : "Odense C",
               "types" : [ "political", "sublocality", "sublocality_level_1" ]
            },
            {
               "long_name" : "Odense",
               "short_name" : "Odense",
               "types" : [ "locality", "political" ]
            },
            {
               "long_name" : "Denmark",
               "short_name" : "DK",
               "types" : [ "country", "political" ]
            },
            {
               "long_name" : "5000",
               "short_name" : "5000",
               "types" : [ "postal_code" ]
            }
         ],
         "formatted_address" : "Jernbanegade 8, 5000 Odense C, Denmark",
         "geometry" : {
            "location" : {
               "lat" : 55.3967706,
               "lng" : 10.3853783
            },
            "location_type" : "ROOFTOP",
            "viewport" : {
               "northeast" : {
                  "lat" : 55.39811958029149,
                  "lng" : 10.3867272802915
               },
               "southwest" : {
                  "lat" : 55.3954216197085,
                  "lng" : 10.3840293197085
               }
            }
         },
         "place_id" : "ChIJacfKr_nfTEYRd9NXtla7khY",
         "types" : [ "street_address" ]
      }
   ],
   "status" : "OK"
}
