{
   "results" : [
      {
         "address_components" : [
            {
               "long_name" : "1",
               "short_name" : "1",
               "types" : [ "street_number" ]
            },
            {
               "long_name" : "Wilders Plads",
               "short_name" : "Wilders Pl.",
               "types" : [ "route" ]
            },
            {
               "long_name" : "København K",
               "short_name" : "København K",
               "types" : [ "political", "sublocality", "sublocality_level_1" ]
            },
            {
               "long_name" : "København",
               "short_name" : "København",
               "types" : [ "locality", "political" ]
            },
            {
               "long_name" : "Denmark",
               "short_name" : "DK",
               "types" : [ "country", "political" ]
            },
            {
               "long_name" : "1403",
               "short_name" : "1403",
               "types" : [ "postal_code" ]
            }
         ],
         "formatted_address" : "Wilders Pl. 1, 1403 København K, Denmark",
         "geometry" : {
            "location" : {
               "lat" : 55.6756521,
               "lng" : 12.5931185
            },
            "location_type" : "ROOFTOP",
            "viewport" : {
               "northeast" : {
                  "lat" : 55.6770010802915,
                  "lng" : 12.5944674802915
               },
               "southwest" : {
                  "lat" : 55.6743031197085,
                  "lng" : 12.5917695197085
               }
            }
         },
         "partial_match" : true,
         "place_id" : "ChIJHwd3bTxTUkYRIbm5vn_igR4",
         "types" : [ "street_address" ]
      }
   ],
   "status" : "OK"
}
