{
   "results" : [
      {
         "address_components" : [
            {
               "long_name" : "74",
               "short_name" : "74",
               "types" : [ "street_number" ]
            },
            {
               "long_name" : "Taastrup Hovedgade",
               "short_name" : "Taastrup Hovedgade",
               "types" : [ "route" ]
            },
            {
               "long_name" : "Taastrup",
               "short_name" : "Taastrup",
               "types" : [ "locality", "political" ]
            },
            {
               "long_name" : "Denmark",
               "short_name" : "DK",
               "types" : [ "country", "political" ]
            },
            {
               "long_name" : "2630",
               "short_name" : "2630",
               "types" : [ "postal_code" ]
            }
         ],
         "formatted_address" : "Taastrup Hovedgade 74, 2630 Taastrup, Denmark",
         "geometry" : {
            "location" : {
               "lat" : 55.6492936,
               "lng" : 12.3006873
            },
            "location_type" : "ROOFTOP",
            "viewport" : {
               "northeast" : {
                  "lat" : 55.6506425802915,
                  "lng" : 12.3020362802915
               },
               "southwest" : {
                  "lat" : 55.6479446197085,
                  "lng" : 12.2993383197085
               }
            }
         },
         "place_id" : "ChIJxdbOH79ZUkYRAdkiXE-dvLo",
         "types" : [ "street_address" ]
      }
   ],
   "status" : "OK"
}
