{
   "results" : [
      {
         "address_components" : [
            {
               "long_name" : "1",
               "short_name" : "1",
               "types" : [ "street_number" ]
            },
            {
               "long_name" : "Torvebyen",
               "short_name" : "Torvebyen",
               "types" : [ "route" ]
            },
            {
               "long_name" : "Køge",
               "short_name" : "Køge",
               "types" : [ "locality", "political" ]
            },
            {
               "long_name" : "Denmark",
               "short_name" : "DK",
               "types" : [ "country", "political" ]
            },
            {
               "long_name" : "4600",
               "short_name" : "4600",
               "types" : [ "postal_code" ]
            }
         ],
         "formatted_address" : "Torvebyen 1, 4600 Køge, Denmark",
         "geometry" : {
            "location" : {
               "lat" : 55.4549031,
               "lng" : 12.1791555
            },
            "location_type" : "ROOFTOP",
            "viewport" : {
               "northeast" : {
                  "lat" : 55.45625208029149,
                  "lng" : 12.1805044802915
               },
               "southwest" : {
                  "lat" : 55.45355411970849,
                  "lng" : 12.1778065197085
               }
            }
         },
         "place_id" : "ChIJy3jW3azxUkYRdX1iDPP6VwQ",
         "types" : [ "street_address" ]
      }
   ],
   "status" : "OK"
}
