{
   "results" : [
      {
         "address_components" : [
            {
               "long_name" : "28",
               "short_name" : "28",
               "types" : [ "street_number" ]
            },
            {
               "long_name" : "Boulevarden",
               "short_name" : "Boulevarden",
               "types" : [ "route" ]
            },
            {
               "long_name" : "Aalborg Centrum",
               "short_name" : "Aalborg Centrum",
               "types" : [ "political", "sublocality", "sublocality_level_1" ]
            },
            {
               "long_name" : "Aalborg",
               "short_name" : "Aalborg",
               "types" : [ "locality", "political" ]
            },
            {
               "long_name" : "Denmark",
               "short_name" : "DK",
               "types" : [ "country", "political" ]
            },
            {
               "long_name" : "9000",
               "short_name" : "9000",
               "types" : [ "postal_code" ]
            }
         ],
         "formatted_address" : "Boulevarden 28, 9000 Aalborg, Denmark",
         "geometry" : {
            "location" : {
               "lat" : 57.04516049999999,
               "lng" : 9.9180262
            },
            "location_type" : "ROOFTOP",
            "viewport" : {
               "northeast" : {
                  "lat" : 57.04650948029149,
                  "lng" : 9.919375180291503
               },
               "southwest" : {
                  "lat" : 57.04381151970849,
                  "lng" : 9.916677219708498
               }
            }
         },
         "place_id" : "ChIJky_jcPMySUYR1pxSRaD-S-c",
         "types" : [ "street_address" ]
      }
   ],
   "status" : "OK"
}
