{
   "results" : [
      {
         "address_components" : [
            {
               "long_name" : "13",
               "short_name" : "13",
               "types" : [ "street_number" ]
            },
            {
               "long_name" : "Ravnsborggade",
               "short_name" : "Ravnsborggade",
               "types" : [ "route" ]
            },
            {
               "long_name" : "København N",
               "short_name" : "København N",
               "types" : [ "political", "sublocality", "sublocality_level_1" ]
            },
            {
               "long_name" : "København",
               "short_name" : "København",
               "types" : [ "locality", "political" ]
            },
            {
               "long_name" : "Denmark",
               "short_name" : "DK",
               "types" : [ "country", "political" ]
            },
            {
               "long_name" : "2200",
               "short_name" : "2200",
               "types" : [ "postal_code" ]
            }
         ],
         "formatted_address" : "Ravnsborggade 13, 2200 København N, Denmark",
         "geometry" : {
            "location" : {
               "lat" : 55.6888044,
               "lng" : 12.5620425
            },
            "location_type" : "ROOFTOP",
            "viewport" : {
               "northeast" : {
                  "lat" : 55.6901533802915,
                  "lng" : 12.5633914802915
               },
               "southwest" : {
                  "lat" : 55.6874554197085,
                  "lng" : 12.5606935197085
               }
            }
         },
         "place_id" : "ChIJl7GZ0wBTUkYR2rmBbxScD5c",
         "types" : [ "street_address" ]
      }
   ],
   "status" : "OK"
}
