{
   "results" : [
      {
         "address_components" : [
            {
               "long_name" : "18",
               "short_name" : "18",
               "types" : [ "street_number" ]
            },
            {
               "long_name" : "Dyrehovedgårds Alle",
               "short_name" : "Dyrehovedgårds Alle",
               "types" : [ "route" ]
            },
            {
               "long_name" : "Korsør",
               "short_name" : "Korsør",
               "types" : [ "locality", "political" ]
            },
            {
               "long_name" : "Denmark",
               "short_name" : "DK",
               "types" : [ "country", "political" ]
            },
            {
               "long_name" : "4220",
               "short_name" : "4220",
               "types" : [ "postal_code" ]
            }
         ],
         "formatted_address" : "Dyrehovedgårds Alle 18, 4220 Korsør, Denmark",
         "geometry" : {
            "bounds" : {
               "northeast" : {
                  "lat" : 55.3413931,
                  "lng" : 11.1363318
               },
               "southwest" : {
                  "lat" : 55.3412746,
                  "lng" : 11.1361146
               }
            },
            "location" : {
               "lat" : 55.3413339,
               "lng" : 11.1362232
            },
            "location_type" : "ROOFTOP",
            "viewport" : {
               "northeast" : {
                  "lat" : 55.34268283029149,
                  "lng" : 11.1375721802915
               },
               "southwest" : {
                  "lat" : 55.33998486970849,
                  "lng" : 11.13487421970849
               }
            }
         },
         "place_id" : "ChIJ7QEAKQJoTUYR9pq7BDjGO1A",
         "types" : [ "premise" ]
      }
   ],
   "status" : "OK"
}
