{
   "results" : [
      {
         "address_components" : [
            {
               "long_name" : "35",
               "short_name" : "35",
               "types" : [ "street_number" ]
            },
            {
               "long_name" : "Solrød Center",
               "short_name" : "Solrød Center",
               "types" : [ "route" ]
            },
            {
               "long_name" : "Solrød Strand",
               "short_name" : "Solrød Strand",
               "types" : [ "locality", "political" ]
            },
            {
               "long_name" : "Denmark",
               "short_name" : "DK",
               "types" : [ "country", "political" ]
            },
            {
               "long_name" : "2680",
               "short_name" : "2680",
               "types" : [ "postal_code" ]
            }
         ],
         "formatted_address" : "Solrød Center 35, 2680 Solrød Strand, Denmark",
         "geometry" : {
            "location" : {
               "lat" : 55.533625,
               "lng" : 12.216866
            },
            "location_type" : "ROOFTOP",
            "viewport" : {
               "northeast" : {
                  "lat" : 55.5349739802915,
                  "lng" : 12.2182149802915
               },
               "southwest" : {
                  "lat" : 55.5322760197085,
                  "lng" : 12.2155170197085
               }
            }
         },
         "place_id" : "ChIJd8SXDOL2UkYR5QPdTn7JLrE",
         "types" : [ "street_address" ]
      }
   ],
   "status" : "OK"
}
