{
   "results" : [
      {
         "address_components" : [
            {
               "long_name" : "21",
               "short_name" : "21",
               "types" : [ "street_number" ]
            },
            {
               "long_name" : "Frederiksborggade",
               "short_name" : "Frederiksborggade",
               "types" : [ "route" ]
            },
            {
               "long_name" : "Indre By",
               "short_name" : "Indre By",
               "types" : [ "political", "sublocality", "sublocality_level_1" ]
            },
            {
               "long_name" : "København K",
               "short_name" : "København K",
               "types" : [ "locality", "political" ]
            },
            {
               "long_name" : "Denmark",
               "short_name" : "DK",
               "types" : [ "country", "political" ]
            },
            {
               "long_name" : "1360",
               "short_name" : "1360",
               "types" : [ "postal_code" ]
            }
         ],
         "formatted_address" : "Frederiksborggade 21, 1360 København K, Denmark",
         "geometry" : {
            "location" : {
               "lat" : 55.68404930000001,
               "lng" : 12.5694645
            },
            "location_type" : "ROOFTOP",
            "viewport" : {
               "northeast" : {
                  "lat" : 55.68539828029151,
                  "lng" : 12.5708134802915
               },
               "southwest" : {
                  "lat" : 55.68270031970851,
                  "lng" : 12.5681155197085
               }
            }
         },
         "place_id" : "ChIJGzGFEgVTUkYRO2LpXOPtdHM",
         "types" : [
            "establishment",
            "food",
            "grocery_or_supermarket",
            "point_of_interest",
            "store"
         ]
      }
   ],
   "status" : "OK"
}
