{
   "results" : [
      {
         "address_components" : [
            {
               "long_name" : "36",
               "short_name" : "36",
               "types" : [ "street_number" ]
            },
            {
               "long_name" : "Rugvang",
               "short_name" : "Rugvang",
               "types" : [ "route" ]
            },
            {
               "long_name" : "Odense NV",
               "short_name" : "Odense NV",
               "types" : [ "political", "sublocality", "sublocality_level_1" ]
            },
            {
               "long_name" : "Odense",
               "short_name" : "Odense",
               "types" : [ "locality", "political" ]
            },
            {
               "long_name" : "Denmark",
               "short_name" : "DK",
               "types" : [ "country", "political" ]
            },
            {
               "long_name" : "5210",
               "short_name" : "5210",
               "types" : [ "postal_code" ]
            }
         ],
         "formatted_address" : "Rugvang 36, 5210 Odense, Denmark",
         "geometry" : {
            "location" : {
               "lat" : 55.4096854,
               "lng" : 10.3385921
            },
            "location_type" : "ROOFTOP",
            "viewport" : {
               "northeast" : {
                  "lat" : 55.4110343802915,
                  "lng" : 10.3399410802915
               },
               "southwest" : {
                  "lat" : 55.4083364197085,
                  "lng" : 10.3372431197085
               }
            }
         },
         "partial_match" : true,
         "place_id" : "ChIJQWCuqnjgTEYRIis2VSvwAVQ",
         "types" : [ "street_address" ]
      }
   ],
   "status" : "OK"
}
