{
   "results" : [
      {
         "address_components" : [
            {
               "long_name" : "12",
               "short_name" : "12",
               "types" : [ "street_number" ]
            },
            {
               "long_name" : "Rosengården",
               "short_name" : "Rosengården",
               "types" : [ "route" ]
            },
            {
               "long_name" : "København K",
               "short_name" : "København K",
               "types" : [ "political", "sublocality", "sublocality_level_1" ]
            },
            {
               "long_name" : "København",
               "short_name" : "København",
               "types" : [ "locality", "political" ]
            },
            {
               "long_name" : "Denmark",
               "short_name" : "DK",
               "types" : [ "country", "political" ]
            },
            {
               "long_name" : "1174",
               "short_name" : "1174",
               "types" : [ "postal_code" ]
            }
         ],
         "formatted_address" : "Rosengården 12, 1174 København K, Denmark",
         "geometry" : {
            "bounds" : {
               "northeast" : {
                  "lat" : 55.6827222,
                  "lng" : 12.572953
               },
               "southwest" : {
                  "lat" : 55.68230519999999,
                  "lng" : 12.572318
               }
            },
            "location" : {
               "lat" : 55.68251369999999,
               "lng" : 12.5726355
            },
            "location_type" : "ROOFTOP",
            "viewport" : {
               "northeast" : {
                  "lat" : 55.6838626802915,
                  "lng" : 12.5739844802915
               },
               "southwest" : {
                  "lat" : 55.6811647197085,
                  "lng" : 12.5712865197085
               }
            }
         },
         "place_id" : "ChIJ58SPrRpTUkYREWkB6YqatcU",
         "types" : [ "premise" ]
      }
   ],
   "status" : "OK"
}
