{
   "results" : [
      {
         "address_components" : [
            {
               "long_name" : "227",
               "short_name" : "227",
               "types" : [ "street_number" ]
            },
            {
               "long_name" : "Hjortdalvej",
               "short_name" : "Hjortdalvej",
               "types" : [ "route" ]
            },
            {
               "long_name" : "Fjerritslev",
               "short_name" : "Fjerritslev",
               "types" : [ "locality", "political" ]
            },
            {
               "long_name" : "Denmark",
               "short_name" : "DK",
               "types" : [ "country", "political" ]
            },
            {
               "long_name" : "9690",
               "short_name" : "9690",
               "types" : [ "postal_code" ]
            }
         ],
         "formatted_address" : "Hjortdalvej 227, 9690 Fjerritslev, Denmark",
         "geometry" : {
            "location" : {
               "lat" : 57.130691,
               "lng" : 9.3764749
            },
            "location_type" : "ROOFTOP",
            "viewport" : {
               "northeast" : {
                  "lat" : 57.13203998029149,
                  "lng" : 9.377823880291503
               },
               "southwest" : {
                  "lat" : 57.1293420197085,
                  "lng" : 9.375125919708498
               }
            }
         },
         "partial_match" : true,
         "place_id" : "ChIJsXHHSsEZSUYRgvVDFHmScDg",
         "types" : [ "street_address" ]
      }
   ],
   "status" : "OK"
}
