{
   "results" : [
      {
         "address_components" : [
            {
               "long_name" : "6",
               "short_name" : "6",
               "types" : [ "street_number" ]
            },
            {
               "long_name" : "Jægersborggade",
               "short_name" : "Jægersborggade",
               "types" : [ "route" ]
            },
            {
               "long_name" : "København N",
               "short_name" : "København N",
               "types" : [ "political", "sublocality", "sublocality_level_1" ]
            },
            {
               "long_name" : "København",
               "short_name" : "København",
               "types" : [ "locality", "political" ]
            },
            {
               "long_name" : "Denmark",
               "short_name" : "DK",
               "types" : [ "country", "political" ]
            },
            {
               "long_name" : "2200",
               "short_name" : "2200",
               "types" : [ "postal_code" ]
            }
         ],
         "formatted_address" : "Jægersborggade 6, 2200 København N, Denmark",
         "geometry" : {
            "location" : {
               "lat" : 55.69197149999999,
               "lng" : 12.5452013
            },
            "location_type" : "ROOFTOP",
            "viewport" : {
               "northeast" : {
                  "lat" : 55.69332048029149,
                  "lng" : 12.5465502802915
               },
               "southwest" : {
                  "lat" : 55.69062251970849,
                  "lng" : 12.5438523197085
               }
            }
         },
         "partial_match" : true,
         "place_id" : "ChIJE_CPla1TUkYR7Uhr7wBFyq8",
         "types" : [ "street_address" ]
      }
   ],
   "status" : "OK"
}
