"Navn";"Landsdel";"Postnummer";"By";"Adresse";"Latitude";"Longitude"
"Sprit & Co";"Sjælland m.fl.";"1914";"Frederiksberg";"Vodroffslund 7. st. th., 1914 Frederiksberg";"55.6778454";"12.5536988"
"Den Sidste Dråbe Spiritushandel Torvehallerne";"Sjælland m.fl.";"1360";"København K";"Frederiksborggade 21, 1360 København, 1360 København K";"55.6836899";"12.5697655"
"Den Sidste Dråbe";"Sjælland m.fl.";"2200";"København n";"Linnésgade 14-18, 2200 København n";"55.6834108";"12.5701342"
"Den Sidste Dråbe";"Sjælland m.fl.";"2200";"København n";"jægersborggade 10 kld tv, 2200 København n";"55.6920999";"12.5450304"
"Den Sidste Dråbe Spiritushandel OBS åben for levering tir-lør kl 12-18";"Sjælland m.fl.";"2200";"København N";"Jægersborggade 10, kld tv, 2200 København N";"55.6920999";"12.5450304"
"Gaudio Macao";"Sjælland m.fl.";"2820";"Gentofte";"Gyldenholm Allé 23, 2820 Gentofte";"55.744693";"12.550668"
"Den Sidste Dråbe Spiritushandel";"Sjælland m.fl.";"2200";"København N";"Jægersborggade 10, kld tv, 2200 København N";"55.6920999";"12.5450304"
"Den Sidste Dråbe Spiritushandel";"Sjælland m.fl.";"1360";"København K";"Hal 2, Stade 5D, Frederiksborggade 21, 1360 København K, 1360 København K";"55.6854725";"12.5666087"
"Dansk e-Logistik";"Sjælland m.fl.";"4690";"Dalby";"Herringvej 25, 4690 Dalby";"55.316385";"12.062206"
"Den Sidste Dråbe";"Sjælland m.fl.";"1360";"København";"Frederiksborggade 21, 1360 København";"55.6836899";"12.5697655"
"Toke Krebs Eskildsen";"Sjælland m.fl.";"2300";"København S";"Egilsgade 5, 2 sal TV, 2300 København S";"55.666613";"12.577439"
"IFKL";"Sjælland m.fl.";"2770";"Kastrup";"Magle Alle 3, 2770 Kastrup";"55.6249165";"12.6257332"
"Dansk e-Logistik C/O Nordic Spirits";"Sjælland m.fl.";"4690";"Dalby";"Herringvej 25, 4690 Dalby";"55.316385";"12.062206"
"Den Sidste Dråbe Spiritushandel";"Sjælland m.fl.";"1360";"København K";"Torvehallerne Hal 2 Stade 5 D, 1360 København K";"55.6854725";"12.5666087"
"skjold burne";"Sjælland m.fl.";"1100";"København";"Østergade 1, 1100 København";"55.6801095";"12.5845924"
"Den Sidste Dråbe Spiritushandel";"Sjælland m.fl.";"2200";"København N";"Jægersborggade 10 kld tv, 2200 København N";"55.6920999";"12.5450304"
"Holte Vinlager, Gentofte";"Sjælland m.fl.";"2820";"Gentofte";"Smakkegårdsvej 137, 2820 Gentofte";"55.7604771";"12.526636"
"Den Sidste Dråbe";"Sjælland m.fl.";"2200";"København n";"jægersborggade 6 kld th, 2200 København n";"55.6919715";"12.5452013"
"Den Sidste Dråbe";"Sjælland m.fl.";"1360";"København K";"Torvehallerne Hal 2, 5D, 1360 København K";"55.6840493";"12.5694645"
"Den Sidste Dråbe";"Sjælland m.fl.";"1360";"København K";"Hal 2, Frederiksborggade 21,, 1360 København K";"55.6836899";"12.5697655"
"Den Sidste Dråbe Spiritushandel";"Sjælland m.fl.";"2200";"København N";"Jægersborggade 6, th, 2200 København N";"55.6919715";"12.5452013"
"Den Sidste Dråbe";"Sjælland m.fl.";"1360";"København K";"Frederiksborggade 21, Hal 2 5D, 1360 København K";"55.6836899";"12.5697655"
"Taastrup Ny Vinhandel I/S";"Sjælland m.fl.";"2630";"Taastrup";"Taastrup Hovedgade 74, 2630 Taastrup";"55.6492936";"12.3006873"
"Den Franske Vinhandel";"Sjælland m.fl.";"4000";"Roskilde";"Skomagergade 3, 4000 Roskilde";"55.6408165";"12.0796047"
"XOCOVINO";"Sjælland m.fl.";"1159";"København K.";"Skindergade 19, kl., 1159 København K.";"55.6800207";"12.5751099"
"Brdr D Østerbro";"Sjælland m.fl.";"2100";"København Ø";"Østerbrogade 152, 2100 København Ø";"55.7085168";"12.5777034"
"JP VIN APS";"Sjælland m.fl.";"4652";"Hårlev";"Hovedgaden 10, 4652 Hårlev";"55.3523194";"12.2343915"
"inco København Cash & Carry A/S";"Sjælland m.fl.";"1711";"København V";"Ingerslevsgade 42, 1711 København V";"55.6674304";"12.5633641"
"Meny";"Sjælland m.fl.";"2300";"København S";"Vermlandsgade 51, 2300 København S";"55.668537";"12.6074755"
"Inco Glostrup";"Sjælland m.fl.";"2600";"Glostrup";"Ejby Industrivej 11, 2600 Glostrup";"55.6941648";"12.417417"
"Skælskør Vinhandel";"Sjælland m.fl.";"4230";"Skælskør";"Algade 6-8, 4230 Skælskør";"55.2535426";"11.2926944"
"Smagførst";"Sjælland m.fl.";"1364";"København K";"Nørre Farimagsgade 61, 1364 København K";"55.6848097";"12.5678215"
"Vin de Table";"Sjælland m.fl.";"2400";"København NV";"Frederikssundsvej 33, 2400 København NV";"55.701954";"12.532648"
"Zaizon";"Sjælland m.fl.";"2000";"Frederiksberg";"Falkoner Alle 33, 2000 Frederiksberg";"55.6828792";"12.5355554"
"Bagsværd Vinhandel";"Sjælland m.fl.";"2880";"Bagsværd";"Bagsværd Hovedgade 125, 2880 Bagsværd";"55.7609276";"12.4523632"
"Skjold Burne";"Sjælland m.fl.";"4720";"Præstø";"Adelgade 70, 4720 Præstø";"55.121862";"12.0416302"
"Inco";"Sjælland m.fl.";"1711";"København V.";"Ingerslevsgade 42, 1711 København V.";"55.6674304";"12.5633641"
"Den Gamle Købmand";"Sjælland m.fl.";"1250";"København K";"Sankt Annæ Plads 22, 1250 København K";"55.6811032";"12.5922385"
"Hav Kildegårdsvej";"Sjælland m.fl.";"2900";"Hellerup";"Kildegårdsvej 15, 2900 Hellerup";"55.735116";"12.5562671"
"Mikkeller Meatpacking Aps";"Sjælland m.fl.";"1711";"KBH V";"Flæsketorvet 51-55, 1711 KBH V";"55.6679895";"12.5606735"
"Flavour A/S";"Sjælland m.fl.";"1159";"København K";"Skindergade 19. st., 1159 København K";"55.6800207";"12.5751099"
"Krusemynte";"Sjælland m.fl.";"3100";"Hornbæk";"Nordre Strandvej 341A, 3100 Hornbæk";"56.0899254";"12.4556958"
"Restaurant Format";"Sjælland m.fl.";"1250";"KBH K";"Sankt Annæ Plads 18, 1250 KBH K";"55.6812476";"12.5917309"
"Restaurant Format";"Sjælland m.fl.";"1250";"KBH K";"Sankt Annæ Plads 20, 1250 KBH K";"55.6811762";"12.5919841"
"Hotel Saxkjøbing";"Sjælland m.fl.";"4990";"Sakskøbing";"Torvet 9, 4990 Sakskøbing";"54.799568";"11.634486"
"Hotel Cecil";"Sjælland m.fl.";"1153";"København K";"Niels Hemmingsens Gade 11, 1153 København K";"55.6798096";"12.5765988"
"Nobis Hotel Copenhagen";"Sjælland m.fl.";"1574";"København V";"Niels Brocks Gade 1, 1574 København V";"55.6724362";"12.5733757"
"Vang & Barfred";"Sjælland m.fl.";"1403";"København K";"Wilders Plads 11B, 1403 København K";"55.6749435";"12.5942738"
"Bandholm Hotel";"Sjælland m.fl.";"4941";"Bandholm";"Havnegade 37, 4941 Bandholm";"54.836756";"11.4854155"
"Alkoholfributik";"Onlinebutik";"4793";"Bogø By";"Bakkedraget 1, 4793 Bogø By";"54.9181547";"12.0427357"
"PureVodka";"Onlinebutik";"4100";"Ringsted";"Nordrupvej 28, 4100 Ringsted";"55.402362";"11.846034"
"MIKKELLER APS / SCANGLOBAL";"Onlinebutik";"2630";"Taastrup";"HELGESHØJ ALLE 12, 2630 Taastrup";"55.6629545";"12.2929186"
"COOLSHOP";"Onlinebutik";"9300";"NØRRESUNDBY";"Bøgildsmindvej 3, 9300 NØRRESUNDBY";"57.087575";"9.970838"
"Rombo";"Onlinebutik";"2000";"Frederiksberg";"Falkoner Allé 46, 2000 Frederiksberg";"55.6830076";"12.5362102"
"Butik Harald";"Jylland";"8200";"Aarhus Nord";"Tordenskjoldsgade 63, 8200 Aarhus Nord";"56.172392";"10.216198"
"Smageklubben ApS";"Jylland";"8230";"Åbyhøj";"Gjellerupvej 89A, 8230 Åbyhøj";"56.146107";"10.148828"
"Butik Jes Pors";"Jylland";"8000";"Aarhus C";"Vestergade 7, 8000 Aarhus C";"56.157606";"10.205652"
"Livingzone";"Jylland";"9000";"Aalborg";"Enggaardsgade 27, 9000 Aalborg";"57.030269";"9.915863"
"Pustervig ApS";"Jylland";"8000";"Aarhus";"Rosensgade 21, 8000 Aarhus";"56.1579435";"10.2086857"
"Hantwerk";"Jylland";"8000";"Aarhus";"Fiskerivej 2D, 8000 Aarhus";"56.1644998";"10.2185707"
"Løve's Bog- og Vincafé";"Jylland";"8000";"Århus C";"nørregade 32, 8000 Århus C";"56.160832";"10.209263"
"Vild Med Vin ApS";"Jylland";"7500";"Holstebro";"Nybovej 34, Port 5, 7500 Holstebro";"56.3285447";"8.6304885"
"inco Aarhus A/S";"Jylland";"8381";"Tilst";"Blomstervej 5, 8381 Tilst";"56.1834269";"10.1262882"
"Vinspecialisten Skagen";"Jylland";"9990";"Skagen";"Sct. Laurentiivej 43, 9990 Skagen";"57.7228786";"10.5911777"
"Mundskænken ApS Broen Shopping";"Jylland";"6700";"Esbjerg";"Mundskænken Broen Shopping, 6700 Esbjerg";"55.4652848";"8.4573216"
"Vin-Gaven";"Jylland";"9310";"Vodskov";"Vodskovvej 44, 9310 Vodskov";"57.104893";"10.030855"
"Skjold Burne Vinhandel";"Jylland";"9000";"Aalborg";"Boulevarden 5, 9000 Aalborg";"57.0469121";"9.9202165"
"MUMS";"Jylland";"9210";"Aalborg SØ";"Gugvej 184, 9210 Aalborg SØ";"57.00872";"9.926152"
"Meny Aalborg";"Jylland";"9200";"Aalborg";"Otto Mønstedsvej 1, 9200 Aalborg";"57.0149828";"9.8951189"
"Textur ApS";"Jylland";"9000";"Aalborg";"Vesterbro 65 st th, 9000 Aalborg";"57.04775";"9.914562"
"Salling Aalborg";"Jylland";"9000";"Aalborg";"Nytorv 8, 9000 Aalborg";"57.0482958";"9.922439"
"F. Salling A/S";"Jylland";"8000";"Aarhus C";"Søndergade 27, 8000 Aarhus C";"56.1544331";"10.2072483"
"Drinkx";"Jylland";"9900";"Frederikshavn";"Fiskerihavnsgade 23, 9900 Frederikshavn";"57.440392";"10.546899"
"Easy Wine Odense ApS";"Fyn m.fl.";"5000";"Odense C";"Skibhusvej 52C3, 5000 Odense C";"55.4098387";"10.4033485"
"Rahbek&Læssøe Aps";"Fyn m.fl.";"5230";"Odense M";"Rahbeksvej 9, 5230 Odense M";"55.379773";"10.3929879"
