"Navn";"Landsdel";"Postnummer";"By";"Adresse";"Latitude";"Longitude"
"Vin-Gaven";"Jylland";"9310";"Vodskov";"Vodskovvej 44, 9310 Vodskov";"57.104893";"10.030855"
"Vinspecialisten Skagen";"Jylland";"9990";"Skagen";"Sct. Laurentiivej 43, 9990 Skagen";"57.7228786";"10.5911777"
"Salling Aalborg";"Jylland";"9000";"Aalborg";"Nytorv 8, 9000 Aalborg";"57.0482958";"9.922439"
"Cafe Vesterå";"Jylland";"9000";"Aalborg";"Vesterå 4, 9000 Aalborg";"57.049747";"9.9179739"
"Hr Skov ApS";"Jylland";"6857";"Blåvand";"Blåvandvej 37, 6857 Blåvand";"55.5565455";"8.1391532"
"Aakjær's";"Jylland";"6700";"Esbjerg";"Strandbygade 46, 6700 Esbjerg";"55.4702406";"8.4389747"
"Vinspecialisten Randers";"Jylland";"8900";"Randers C";"Dytmærsken 3, 8900 Randers C";"56.459367";"10.038423"
"Vin de Table";"Sjælland m.fl.";"2400";"København NV";"Frederikssundsvej 33, 2400 København NV";"55.701954";"12.532648"
