"Navn";"Landsdel";"Postnummer";"By";"Adresse";"Latitude";"Longitude"
"Fjelsted Skov Kro";"Fyn m.fl.";"5592";"Ejby";"Store Landevej 92, 5592 Ejby";"55.444847";"9.9875399"
"Flyblock.com ApS";"Fyn m.fl.";"5210";"Odense NV";"Siriusvænget 11, 5210 Odense NV";"55.412743";"10.318872"
"Rahbek&Læssøe AoS";"Fyn m.fl.";"5000";"Odense C";"Læssøegade 22, 5000 Odense C";"55.3888193";"10.3872028"
"Den Gamle Købmandsgaard";"Fyn m.fl.";"5970";"Ærøskøbing";"Torvet 5, 5970 Ærøskøbing";"54.888233";"10.4110761"
"Nørre Vosborg";"Jylland";"7570";"Vemb";"Vembvej 35, 7570 Vemb";"56.326664";"8.331083"
"Comwell Århus";"Jylland";"8000";"Århus C";"Værkmestergade 2, 8000 Århus C";"56.1503755";"10.209654"
"Mash Aarhus";"Jylland";"8000";"Aarhus C";"Banegaardspladsen 12, 8000 Aarhus C";"56.1510706";"10.203444"
"Fiskehuset Thisted";"Jylland";"7700";"Thisted";"Havnen 31, 7700 Thisted";"56.953153";"8.6943002"
"Smageklubben ApS";"Jylland";"8230";"Åbyhøj";"Gjellerupvej 89A, 8230 Åbyhøj";"56.146107";"10.148828"
"Arkitema Architects";"Jylland";"8000";"Aarhus C";"Frederiksgade 32, 8000 Aarhus C";"56.1555009";"10.205311"
"Herremagasinet";"Jylland";"9520";"Skørping";"Jyllandsgade 22, 9520 Skørping";"56.8344995";"9.8905326"
"Livingzone";"Jylland";"9000";"Aalborg";"Enggaardsgade 27, 9000 Aalborg";"57.030269";"9.915863"
"Gjøl Liv";"Jylland";"9440";"Aabybro";"Fløjlsanden 5, 9440 Aabybro";"57.074408";"9.681286"
"Hjortdal Købmand";"Jylland";"9690";"Fjerritslev";"Hjortdalvej 142, 9690 Fjerritslev";"57.1351799";"9.3549297"
"Hr Nielsens Specialiteter";"Jylland";"9460";"Brovst";"jernbanegade 12 st. tv, 9460 Brovst";"57.0982232";"9.5225092"
"Knud Sko";"Jylland";"9690";"Fjerritslev";"Vestergade 23, 9690 Fjerritslev";"57.088266";"9.262075"
"Aabybro Mejeri";"Jylland";"9440";"Aabybro";"Brogårdsvej 148, 9440 Aabybro";"57.1681955";"9.7166209"
"Butik Jes Pors";"Jylland";"8000";"Aarhus C";"Vestergade 7, 8000 Aarhus C";"56.157606";"10.205652"
"Mokkahouse";"Jylland";"8240";"Risskov";"Lystrupvej 62, 8240 Risskov";"56.208008";"10.236285"
"Rene's Vin Og Grønttorv";"Jylland";"9690";"Fjerritslev";"Østergade 2 B, 9690 Fjerritslev";"57.0880859";"9.2674159"
"Albert Rex";"Jylland";"9000";"Aalborg";"Nørregade 22, 9000 Aalborg";"57.0464565";"9.927551"
"F. Salling A/S";"Jylland";"8000";"Aarhus C";"Søndergade 27, 8000 Aarhus C";"56.1544331";"10.2072483"
"Salling Aalborg";"Jylland";"9000";"Aalborg";"Nytorv 8, 9000 Aalborg";"57.0482958";"9.922439"
"Sigurd Muller Vinhandel A/S";"Jylland";"9200";"Aalborg SV";"Otto Mønstedsvej 2, 9200 Aalborg SV";"57.014362";"9.8965"
"Smagførst";"Jylland";"8000";"Aarhus C";"Jægergårdsgade 32, 8000 Aarhus C";"56.1479927";"10.1987749"
"Vin&Vin";"Jylland";"6100";"Haderslev";"Torvet 8, 6100 Haderslev";"55.2493076";"9.4879459"
"Bisgaard Vinhandel";"Jylland";"9530";"Støvring";"Jernbanegade 4, 9530 Støvring";"56.891948";"9.838134"
"Vin-Gaven";"Jylland";"9310";"Vodskov";"Vodskovvej 44, 9310 Vodskov";"57.104893";"10.030855"
"Vinspecialisten Aalborg A/S";"Jylland";"9000";"Aalborg";"Vingårdsgade 13-15, 9000 Aalborg";"57.0471068";"9.9177277"
"Meny Aalborg";"Jylland";"9200";"Aalborg";"Otto Mønstedsvej 1, 9200 Aalborg";"57.0149828";"9.8951189"
"Kolding Vinhandel";"Jylland";"6000";"Kolding";"Låsbybanke 12, 6000 Kolding";"55.491664";"9.471905"
"Vinspecialisten Skagen";"Jylland";"9990";"Skagen";"Sct. Laurentiivej 43, 9990 Skagen";"57.7228786";"10.5911777"
"Uhrskov Vinhandel";"Jylland";"7400";"Herning";"Bredgade 56, 7400 Herning";"56.1364685";"8.9673578"
"Skjold Burne Vinhandel";"Jylland";"9000";"Aalborg";"Boulevarden 5, 9000 Aalborg";"57.0469121";"9.9202165"
"MUMS";"Jylland";"9210";"Aalborg SØ";"Gugvej 184, 9210 Aalborg SØ";"57.00872";"9.926152"
"Mundskænken ApS Broen Shopping";"Jylland";"6700";"Esbjerg";"Mundskænken Broen Shopping, 6700 Esbjerg";"55.4652848";"8.4573216"
"Vinshoppen";"Jylland";"9000";"Aalborg";"Hadsundvej 12, 9000 Aalborg";"57.0432526";"9.949712"
"Vin & Vin Aalborg";"Jylland";"9000";"Aalborg";"Vestre Alle 2, 9000 Aalborg";"57.0339091";"9.908077"
"Vinspecialisten Silkeborg";"Jylland";"8600";"Silkeborg";"Vestergade 23, 8600 Silkeborg";"56.1684138";"9.5464037"
"inco Aarhus A/S";"Jylland";"8381";"Tilst";"Blomstervej 5, 8381 Tilst";"56.1834269";"10.1262882"
"Supervin";"Jylland";"9800";"Hjørring";"Skagensvej 201, 9800 Hjørring";"57.4821425";"9.9910176"
"Vild Med Vin ApS";"Jylland";"7500";"Holstebro";"Nybovej 34, Port 5, 7500 Holstebro";"56.3285447";"8.6304885"
"Cafe Vesterå";"Jylland";"9000";"Aalborg";"Vesterå 4, 9000 Aalborg";"57.049747";"9.9179739"
"CANblau Aalborg";"Jylland";"9000";"Aalborg";"Ved stranden 5, 9000 Aalborg";"57.050325";"9.921236"
"inco København Cash & Carry A/S";"Sjælland m.fl.";"1711";"København V";"Ingerslevsgade 42, 1711 København V";"55.6674304";"12.5633641"
"Taastrup Ny Vinhandel I/S";"Sjælland m.fl.";"2630";"Taastrup";"Taastrup Hovedgade 74, 2630 Taastrup";"55.6492936";"12.3006873"
"Vinspecialisten Lyngby";"Sjælland m.fl.";"2800";"Lyngby";"Klampenborgvej 232, 2800 Lyngby";"55.7715136";"12.5065321"
"Vinoble Holbæk";"Sjælland m.fl.";"4300";"Holbæk";"Ahlgade 48D, 4300 Holbæk";"55.71736";"11.712834"
"Smagførst";"Sjælland m.fl.";"1364";"København K";"Nørre Farimagsgade 61, 1364 København K";"55.6848097";"12.5678215"
"GEORGE LORANGE & CO. A/S";"Sjælland m.fl.";"4700";"Næstved";"Kirkestræde 4, 4700 Næstved";"55.230487";"11.757169"
"1 Godt Sted";"Sjælland m.fl.";"2860";"Søborg";"Buddingevej 310, 2860 Søborg";"55.744301";"12.492882"
"Meny";"Sjælland m.fl.";"2300";"København S";"Vermlandsgade 51, 2300 København S";"55.668537";"12.6074755"
"Skjold Burne";"Sjælland m.fl.";"4720";"Præstø";"Adelgade 70, 4720 Præstø";"55.121862";"12.0416302"
"Inco";"Sjælland m.fl.";"1711";"København V.";"Ingerslevsgade 42, 1711 København V.";"55.6674304";"12.5633641"
"Holte Vinlager, Virum";"Sjælland m.fl.";"2830";"Virum";"Virum _Torv 9, 2830 Virum";"55.7950809";"12.4713345"
"Gaudio Macao";"Sjælland m.fl.";"2820";"Gentofte";"Gyldenholm Allé 23, 2820 Gentofte";"55.744693";"12.550668"
"Dansk e-Logistik";"Sjælland m.fl.";"4690";"Dalby";"Herringvej 25, 4690 Dalby";"55.316385";"12.062206"
"Toke Krebs Eskildsen";"Sjælland m.fl.";"2300";"København S";"Egilsgade 5, 2 sal TV, 2300 København S";"55.666613";"12.577439"
"IFKL";"Sjælland m.fl.";"2770";"Kastrup";"Magle Alle 3, 2770 Kastrup";"55.6249165";"12.6257332"
"Dansk e-Logistik C/O Nordic Spirits";"Sjælland m.fl.";"4690";"Dalby";"Herringvej 25, 4690 Dalby";"55.316385";"12.062206"
"Bandholm Hotel";"Sjælland m.fl.";"4941";"Bandholm";"Havnegade 37, 4941 Bandholm";"54.836756";"11.4854155"
"Klosterkælderen";"Sjælland m.fl.";"4000";"Roskilde";"Store Gråbrødrestræde 23, 4000 Roskilde";"55.640487";"12.0879593"
"The Bird & The Churchkey";"Sjælland m.fl.";"1202";"København K";"Gammel Strand 44, 1202 København K";"55.6776675";"12.5780019"
"Flavour A/S";"Sjælland m.fl.";"1159";"København K";"Skindergade 19. st., 1159 København K";"55.6800207";"12.5751099"
"Smagsløget";"Sjælland m.fl.";"4180";"Sorø";"Storgade 15b, 4180 Sorø";"55.4331653";"11.5563345"
"Hotel Saxkjøbing";"Sjælland m.fl.";"4990";"Sakskøbing";"Torvet 9, 4990 Sakskøbing";"54.799568";"11.634486"
"MIKKELLER APS / SCANGLOBAL";"Onlinebutik";"2630";"Taastrup";"HELGESHØJ ALLE 12, 2630 Taastrup";"55.6629545";"12.2929186"
"Kun Det Bedste";"Onlinebutik";"8600";"Silkeborg";"Priorsvej 21, 8600 Silkeborg";"56.201058";"9.570017"
"COOLSHOP";"Onlinebutik";"9300";"NØRRESUNDBY";"Bøgildsmindvej 3, 9300 NØRRESUNDBY";"57.087575";"9.970838"
"Drinky";"Onlinebutik";"8210";"Aarhus";"Haslegårdsvej 20, 8210 Aarhus";"56.171648";"10.160833"
"Whisky.dk ApS";"Onlinebutik";"6093";"Sjølund";"Sjølund Gade 12, 6093 Sjølund";"55.4029108";"9.5293202"
