"Navn";"Landsdel";"Postnummer";"By";"Adresse";"Latitude";"Longitude"
"Dansk e-Logistik";"Sjælland m.fl.";"4690";"Dalby";"Herringvej 25, 4690 Dalby";"55.316385";"12.062206"
"Den Sidste Dråbe";"Sjælland m.fl.";"2200";"København n";"jægersborggade 10 kld tv, 2200 København n";"55.6920999";"12.5450304"
"";"Sjælland m.fl.";"4000";"Roskilde";"Krogsbøllevej 13, 4000 Roskilde";"55.6556045";"12.0979963"
"Sprit & Co";"Sjælland m.fl.";"1914";"Frederiksberg";"Vodroffslund 7. st. th., 1914 Frederiksberg";"55.6778454";"12.5536988"
"Den Sidste Dråbe Spiritushandel OBS åben for levering tir-lør kl 12-18";"Sjælland m.fl.";"2200";"København N";"Jægersborggade 10, kld tv, 2200 København N";"55.6920999";"12.5450304"
"Toke Krebs Eskildsen";"Sjælland m.fl.";"2300";"København S";"Egilsgade 5, 2 sal TV, 2300 København S";"55.666613";"12.577439"
"Den Sidste Dråbe Spiritushandel";"Sjælland m.fl.";"2200";"København N";"Jægersborggade 10, kld tv, 2200 København N";"55.6920999";"12.5450304"
"Mondo Kaos";"Sjælland m.fl.";"2200";"København N";"Birkegade 1, 2200 København N";"55.6898651";"12.5581069"
"Café Svanen";"Sjælland m.fl.";"4300";"Holbæk";"Labæk 35, 4300 Holbæk";"55.717209";"11.720101"
"Stork Concepts";"Sjælland m.fl.";"1360";"København K";"Frederiksborggade 1b, 4. sal, 1360 København K";"55.682701";"12.573053"
"Hotel Cecil";"Sjælland m.fl.";"1153";"København K";"Niels Hemmingsens Gade 11, 1153 København K";"55.6798096";"12.5765988"
"My Coffee Shop";"Sjælland m.fl.";"2670";"Greve";"Hundige Strandvej 212c, 2670 Greve";"55.583946";"12.3155079"
"Spiritium Cocktails IVS";"Sjælland m.fl.";"2730";"Herlev";"c/o Eye-Grain ApS, 2730 Herlev";"55.715446";"12.428854"
"My 50's closet";"Sjælland m.fl.";"3630";"Jægerspris";"Enghaven 11, 3630 Jægerspris";"55.8220646";"12.0161939"
"GinGin I/S";"Sjælland m.fl.";"4000";"Roskilde";"Ternevej 30, 4000 Roskilde";"55.6484057";"12.1083422"
"Meny";"Sjælland m.fl.";"2300";"København S";"Vermlandsgade 51, 2300 København S";"55.668537";"12.6074755"
"PostNord A/S, Screeningecenter Øst. ATT Restaurant Tårnet, Folketinget Christiansborg";"Sjælland m.fl.";"2770";"Kastrup";"Oliefabriksvej 51, 2770 Kastrup";"55.6251143";"12.5923326"
"Fjelsted Skov Kro";"Fyn m.fl.";"5592";"Ejby";"Store Landevej 92, 5592 Ejby";"55.444847";"9.9875399"
"Easy Wine Odense ApS";"Fyn m.fl.";"5000";"Odense C";"Skibhusvej 52C3, 5000 Odense C";"55.4098387";"10.4033485"
"Water Of Life";"Onlinebutik";"8740";"Brædstrup";"Søndergade 27, 8740 Brædstrup";"55.9699749";"9.6109952"
"PureVodka";"Onlinebutik";"4100";"Ringsted";"Nordrupvej 28, 4100 Ringsted";"55.402362";"11.846034"
"missmia.dk";"Onlinebutik";"1370";"København K";"Nørre Søgade 7, 2. th, 1370 København K";"55.6851885";"12.5645552"
"Kornblomsten";"Jylland";"7850";"Stoholm";"Vestergade 5, 7850 Stoholm";"56.485491";"9.1500631"
"Hr Skov ApS";"Jylland";"6857";"Blåvand";"Blåvandvej 37, 6857 Blåvand";"55.5565455";"8.1391532"
"Gjøl Liv";"Jylland";"9440";"Aabybro";"Fløjlsanden 5, 9440 Aabybro";"57.074408";"9.681286"
"Butik Jes Pors";"Jylland";"8000";"Aarhus C";"Vestergade 7, 8000 Aarhus C";"56.157606";"10.205652"
"Rene's Vin Og Grønttorv";"Jylland";"9690";"Fjerritslev";"Østergade 2 B, 9690 Fjerritslev";"57.0880859";"9.2674159"
"Vesløs Kro";"Jylland";"7742";"Vesløs";"Vesløs Stationsvej 25, 7742 Vesløs";"57.039587";"8.973813"
"Restaurant Villa Vest";"Jylland";"9800";"Lønstrup";"Strandvejen 138, 9800 Lønstrup";"57.476718";"9.796199"
"Pustervig ApS";"Jylland";"8000";"Aarhus";"Rosensgade 21, 8000 Aarhus";"56.1579435";"10.2086857"
"Meny Aalborg";"Jylland";"9200";"Aalborg";"Otto Mønstedsvej 1, 9200 Aalborg";"57.0149828";"9.8951189"
"Vild Med Vin ApS";"Jylland";"7500";"Holstebro";"Nybovej 34, Port 5, 7500 Holstebro";"56.3285447";"8.6304885"
"Vinspecialisten Skagen";"Jylland";"9990";"Skagen";"Sct. Laurentiivej 43, 9990 Skagen";"57.7228786";"10.5911777"
"Skjold Burne/Lysholdt";"Jylland";"6700";"Esbjerg";"Fiskebrogade 8, 6700 Esbjerg";"55.4750089";"8.4322591"
"Vin & Vin Aalborg";"Jylland";"9000";"Aalborg";"Vestre Alle 2, 9000 Aalborg";"57.0339091";"9.908077"
"MUMS";"Jylland";"9210";"Aalborg SØ";"Gugvej 184, 9210 Aalborg SØ";"57.00872";"9.926152"
"Salling Aalborg";"Jylland";"9000";"Aalborg";"Nytorv 8, 9000 Aalborg";"57.0482958";"9.922439"
"F. Salling A/S";"Jylland";"8000";"Aarhus C";"Søndergade 27, 8000 Aarhus C";"56.1544331";"10.2072483"
"Teaterhotellet.dk";"Jylland";"8700";"Horsens";"Søndergade 22, 8700 Horsens";"55.8617682";"9.847526"
"Statista";"Ukendt";"20355";"Hamborg";"Johannes-Brahms-Platz 1, 20355 Hamborg";"55.7772179";"10.0126339"
