"Navn";"Landsdel";"Postnummer";"By";"Adresse";"Latitude";"Longitude"
"Wineboutique";"Jylland";"8370";"Hadsten";"Faurskovvej 21, 8370 Hadsten";"56.33557";"10.000622"
"Vild Med Vin ApS";"Jylland";"7500";"Holstebro";"Nybovej 34, Port 5, 7500 Holstebro";"56.3285447";"8.6304885"
"Vin-Gaven";"Jylland";"9310";"Vodskov";"Vodskovvej 44, 9310 Vodskov";"57.104893";"10.030855"
"Sigurd Muller Vinhandel A/S";"Jylland";"9200";"Aalborg SV";"Otto Mønstedsvej 2, 9200 Aalborg SV";"57.014362";"9.8965"
"Vinspecialisten Skagen";"Jylland";"9990";"Skagen";"Sct. Laurentiivej 43, 9990 Skagen";"57.7228786";"10.5911777"
"Supervin";"Jylland";"9800";"Hjørring";"Skagensvej 201, 9800 Hjørring";"57.4821425";"9.9910176"
"Brdr D Nygade";"Jylland";"8600";"Silkeborg";"Nygade 33, 8600 Silkeborg";"56.1669903";"9.546729"
"Vinkyperen";"Jylland";"8230";"Åbyhøj";"Søren Frichs Vej 40B, 8230 Åbyhøj";"56.1523972";"10.1765752"
"Huset Appel";"Jylland";"6900";"Skjern";"Feldsingvej 3, 6900 Skjern";"55.988852";"8.692557"
"Vinspecialisten Varde";"Jylland";"6800";"Varde";"Ndr.Boulevard 90, 6800 Varde";"55.6323829";"8.4788076"
"Vinspecialisten Aalborg A/S";"Jylland";"9000";"Aalborg";"Vingårdsgade 13-15, 9000 Aalborg";"57.0471068";"9.9177277"
"inco Aarhus A/S";"Jylland";"8381";"Tilst";"Blomstervej 5, 8381 Tilst";"56.1834269";"10.1262882"
"Meny Aalborg";"Jylland";"9200";"Aalborg";"Otto Mønstedsvej 1, 9200 Aalborg";"57.0149828";"9.8951189"
"Peter Vin / Øl & Vin ApS";"Jylland";"9400";"Nørresundby";"Skrågade 33, 9400 Nørresundby";"57.058429";"9.924866"
"Mundskænken ApS Broen Shopping";"Jylland";"6700";"Esbjerg";"Mundskænken Broen Shopping, 6700 Esbjerg";"55.4652848";"8.4573216"
"Kolding Vinhandel";"Jylland";"6000";"Kolding";"Låsbybanke 12, 6000 Kolding";"55.491664";"9.471905"
"Vinspecialisten Lemvig";"Jylland";"7620";"Lemvig";"Vestergade 11, 7620 Lemvig";"56.5498529";"8.306991"
"Vinspecialisten Frederikshavn";"Jylland";"9900";"Frederikshavn";"Jernbanegade 2, 9900 Frederikshavn";"57.4413337";"10.5365936"
"Vinshoppen";"Jylland";"9000";"Aalborg";"Hadsundvej 12, 9000 Aalborg";"57.0432526";"9.949712"
"MUMS";"Jylland";"9210";"Aalborg SØ";"Gugvej 184, 9210 Aalborg SØ";"57.00872";"9.926152"
"Smagførst";"Jylland";"8000";"Aarhus C";"Jægergårdsgade 32, 8000 Aarhus C";"56.1479927";"10.1987749"
"Vin & Vin Aalborg";"Jylland";"9000";"Aalborg";"Vestre Alle 2, 9000 Aalborg";"57.0339091";"9.908077"
"Vinspecialisten Herning ApS";"Jylland";"7400";"Herning";"Merkurvej 84, 7400 Herning";"56.1351302";"8.9993039"
"SLIK FOR VOKSNE";"Jylland";"6700";"Esbjerg";"Kongensgade 100, 6700 Esbjerg";"55.4668271";"8.4436743"
"Vinspecialisten Haderslev ApS";"Jylland";"6100";"Haderslev";"Storegade 30, 6100 Haderslev";"55.252305";"9.4832324"
"Vin&Vin";"Jylland";"6100";"Haderslev";"Torvet 8, 6100 Haderslev";"55.2493076";"9.4879459"
"Aabybro Mejeri";"Jylland";"9440";"Aabybro";"Brogårdsvej 148, 9440 Aabybro";"57.1681955";"9.7166209"
"Hr Skov ApS";"Jylland";"6857";"Blåvand";"Blåvandvej 37, 6857 Blåvand";"55.5565455";"8.1391532"
"Blach&Co";"Jylland";"9700";"Brønderslev";"Algade 7, 9700 Brønderslev";"57.26939";"9.945785"
"Herremagasinet";"Jylland";"9520";"Skørping";"Jyllandsgade 22, 9520 Skørping";"56.8344995";"9.8905326"
"Gjøl Liv";"Jylland";"9440";"Aabybro";"Fløjlsanden 5, 9440 Aabybro";"57.074408";"9.681286"
"Hjortdal Købmand";"Jylland";"9690";"Fjerritslev";"Hjortdalvej 142, 9690 Fjerritslev";"57.1351799";"9.3549297"
"Rene's Vin Og Grønttorv";"Jylland";"9690";"Fjerritslev";"Østergade 2 B, 9690 Fjerritslev";"57.0880859";"9.2674159"
"Arla Unika";"Jylland";"8000";"Århus";"Klostergade 20, 8000 Århus";"56.159007";"10.2080422"
"Smageklubben ApS";"Jylland";"8230";"Åbyhøj";"Gjellerupvej 89A, 8230 Åbyhøj";"56.146107";"10.148828"
"Alexanders Blomster";"Jylland";"9560";"Hadsund";"østergade 1, 9560 Hadsund";"56.718972";"10.1154857"
"Chokoladehimlen ApS";"Jylland";"8300";"Odder";"Ballevej 21, 8300 Odder";"55.98561";"10.140938"
"Butik Jes Pors";"Jylland";"8000";"Aarhus C";"Vestergade 7, 8000 Aarhus C";"56.157606";"10.205652"
"Mokkahouse";"Jylland";"8240";"Risskov";"Lystrupvej 62, 8240 Risskov";"56.208008";"10.236285"
"Livingzone";"Jylland";"9000";"Aalborg";"Enggaardsgade 27, 9000 Aalborg";"57.030269";"9.915863"
"Hr Nielsens Specialiteter";"Jylland";"9460";"Brovst";"jernbanegade 12 st. tv, 9460 Brovst";"57.0982232";"9.5225092"
"Salling Aalborg";"Jylland";"9000";"Aalborg";"Nytorv 8, 9000 Aalborg";"57.0482958";"9.922439"
"F. Salling A/S";"Jylland";"8000";"Aarhus C";"Søndergade 27, 8000 Aarhus C";"56.1544331";"10.2072483"
"Nordisk Brænderi";"Jylland";"9690";"Fjerritslev";"Hjortdalvej 227, 9690 Fjerritslev";"57.130691";"9.3764749"
"Vinmonopolet ApS";"Jylland";"8600";"Silkeborg";"Mads Clausensvej 5, 8600 Silkeborg";"56.200372";"9.587945"
"Skotlander ApS";"Jylland";"9490";"Pandrup";"Hjulmagervej 19, 9490 Pandrup";"57.208189";"9.68163"
"";"Jylland";"9000";"9000";"Antoniusvej 2, 9000 9000";"57.034993";"9.877332"
"Nordisk Brænderi";"Jylland";"9690";"Fjerritslev";"Hjortdalvej227, 9690 Fjerritslev";"57.130691";"9.3764749"
"Pakkecenter Nord";"Jylland";"9700";"Brønderslev";"Aalborgvej 14, 9700 Brønderslev";"57.265827";"9.968841"
"Pustervig ApS";"Jylland";"8000";"Aarhus";"Rosensgade 21, 8000 Aarhus";"56.1579435";"10.2086857"
"Restaurant Sømærket";"Jylland";"9900";"Skagen";"Jeckelsvej 6, 9900 Skagen";"57.7276342";"10.5218658"
"Restaurant Villa Vest";"Jylland";"9800";"Lønstrup";"Strandvejen 138, 9800 Lønstrup";"57.476718";"9.796199"
"Comwell Århus";"Jylland";"8000";"Århus C";"Værkmestergade 2, 8000 Århus C";"56.1503755";"10.209654"
"Hjerting Badehotel";"Jylland";"6710";"Esbjerg V";"Strandpromenaden 1, 6710 Esbjerg V";"55.5233512";"8.3538073"
"Restaurant Tabu II ApS";"Jylland";"9000";"Aalborg";"Vesterå 5, 9000 Aalborg";"57.0499885";"9.9177272"
"Textur ApS";"Jylland";"9000";"Aalborg";"Vesterbro 65 st th, 9000 Aalborg";"57.04775";"9.914562"
"CANblau Aalborg";"Jylland";"9000";"Aalborg";"Ved stranden 5, 9000 Aalborg";"57.050325";"9.921236"
"Hantwerk";"Jylland";"8000";"Aarhus";"Fiskerivej 2D, 8000 Aarhus";"56.1644998";"10.2185707"
"Falkensten Vin";"Sjælland m.fl.";"3600";"Frederikssund";"Jernbanegade 18 b, 3600 Frederikssund";"55.8381956";"12.0633767"
"JP VIN APS";"Sjælland m.fl.";"4652";"Hårlev";"Hovedgaden 10, 4652 Hårlev";"55.3523194";"12.2343915"
"inco København Cash & Carry A/S";"Sjælland m.fl.";"1711";"København V";"Ingerslevsgade 42, 1711 København V";"55.6674304";"12.5633641"
"Vin de Table";"Sjælland m.fl.";"2400";"København NV";"Frederikssundsvej 33, 2400 København NV";"55.701954";"12.532648"
"Meny";"Sjælland m.fl.";"2300";"København S";"Vermlandsgade 51, 2300 København S";"55.668537";"12.6074755"
"Villa Patina";"Sjælland m.fl.";"4220";"Korsør";"Algade 44, st, 4220 Korsør";"55.3295113";"11.1378809"
"Taastrup Ny Vinhandel I/S";"Sjælland m.fl.";"2630";"Taastrup";"Taastrup Hovedgade 74, 2630 Taastrup";"55.6492936";"12.3006873"
"Skjold Burne Vanløse";"Sjælland m.fl.";"2720";"vanløse";"jernbane alle 45, 2720 vanløse";"55.6878588";"12.4895215"
"XOCOVINO";"Sjælland m.fl.";"1159";"København K.";"Skindergade 19, kl., 1159 København K.";"55.6800207";"12.5751099"
"";"Sjælland m.fl.";"4220";"Korsør";"Dyrehovedgårds Alle 18, 4220 Korsør";"55.3413339";"11.1362232"
"Zaizon";"Sjælland m.fl.";"2000";"Frederiksberg";"Falkoner Alle 33, 2000 Frederiksberg";"55.6828792";"12.5355554"
"Skjold Burne Ringsted";"Sjælland m.fl.";"4100";"Ringsted";"Nørregade 45, 4100 Ringsted";"55.4487706";"11.7889179"
"BTB Vine";"Sjælland m.fl.";"4690";"Haslev";"Højbakken 11, 4690 Haslev";"55.312297";"12.052748"
"Vinspecialisten Lyngby";"Sjælland m.fl.";"2800";"Lyngby";"Klampenborgvej 232, 2800 Lyngby";"55.7715136";"12.5065321"
"Smagførst";"Sjælland m.fl.";"1364";"København K";"Nørre Farimagsgade 61, 1364 København K";"55.6848097";"12.5678215"
"Skjold Burne";"Sjælland m.fl.";"4720";"Præstø";"Adelgade 70, 4720 Præstø";"55.121862";"12.0416302"
"Vinoble Holbæk";"Sjælland m.fl.";"4300";"Holbæk";"Ahlgade 48D, 4300 Holbæk";"55.71736";"11.712834"
"Den Franske Vinhandel";"Sjælland m.fl.";"4000";"Roskilde";"Skomagergade 3, 4000 Roskilde";"55.6408165";"12.0796047"
"Stork Concepts";"Sjælland m.fl.";"1360";"København K";"Frederiksborggade 1b, 4. sal, 1360 København K";"55.682701";"12.573053"
"Hotel Cecil";"Sjælland m.fl.";"1153";"København K";"Niels Hemmingsens Gade 11, 1153 København K";"55.6798096";"12.5765988"
"Nobis Hotel Copenhagen";"Sjælland m.fl.";"1574";"København V";"Niels Brocks Gade 1, 1574 København V";"55.6724362";"12.5733757"
"Restaurant Format";"Sjælland m.fl.";"1250";"KBH K";"Sankt Annæ Plads 18, 1250 KBH K";"55.6812476";"12.5917309"
"Hotel Saxkjøbing";"Sjælland m.fl.";"4990";"Sakskøbing";"Torvet 9, 4990 Sakskøbing";"54.799568";"11.634486"
"Restaurant Skade";"Sjælland m.fl.";"1174";"Copenhagen";"Rosengaarden 12, 1174 Copenhagen";"55.6825137";"12.5726355"
"Den Gamle Købmand";"Sjælland m.fl.";"1250";"København K";"Sankt Annæ Plads 22, 1250 København K";"55.6811032";"12.5922385"
"Dansk E-logistik, Att: Latron";"Sjælland m.fl.";"2600";"Glostrup";"Naverland 33, 2600 Glostrup";"55.6787762";"12.3731124"
"Spiritium Cocktails IVS";"Sjælland m.fl.";"2730";"Herlev";"c/o Eye-Grain ApS, 2730 Herlev";"55.715446";"12.428854"
"Mikkeller Meatpacking Aps";"Sjælland m.fl.";"1711";"KBH V";"Flæsketorvet 51-55, 1711 KBH V";"55.6679895";"12.5606735"
"Flavour A/S";"Sjælland m.fl.";"1159";"København K";"Skindergade 19. st., 1159 København K";"55.6800207";"12.5751099"
"Arla Unika Torvehallerne";"Sjælland m.fl.";"1360";"København K";"Torvehallerne, hal 1 Stade 5F, 1360 København K";"55.6840793";"12.5687797"
"Lidt-af-hvert I/S";"Sjælland m.fl.";"2640";"Hedehusene";"Lindegårdsager 14, 2640 Hedehusene";"55.647068";"12.2316925"
"Shoppartner A/S";"Sjælland m.fl.";"4760";"Vordingborg";"Marienbergvej 132, 4760 Vordingborg";"54.9976952";"11.8926232"
"Krusemynte";"Sjælland m.fl.";"3100";"Hornbæk";"Nordre Strandvej 341A, 3100 Hornbæk";"56.0899254";"12.4556958"
"Smagsløget";"Sjælland m.fl.";"4180";"Sorø";"Storgade 15b, 4180 Sorø";"55.4331653";"11.5563345"
"Sprit & Co";"Sjælland m.fl.";"1914";"Frederiksberg";"Vodroffslund 7. st. th., 1914 Frederiksberg";"55.6778454";"12.5536988"
"Gaudio Macao";"Sjælland m.fl.";"2820";"Gentofte";"Gyldenholm Allé 23, 2820 Gentofte";"55.744693";"12.550668"
"Dansk e-Logistik";"Sjælland m.fl.";"4690";"Dalby";"Herringvej 25, 4690 Dalby";"55.316385";"12.062206"
"Dansk E-logistik, att: Latron APS";"Sjælland m.fl.";"2600";"Glostrup";"Naverland 33, 2600 Glostrup";"55.6787762";"12.3731124"
"Den Sidste Dråbe";"Sjælland m.fl.";"1360";"København";"Frederiksborggade 21, 1360 København";"55.6836899";"12.5697655"
"IFKL";"Sjælland m.fl.";"2770";"Kastrup";"Magle Alle 3, 2770 Kastrup";"55.6249165";"12.6257332"
"skjold burne";"Sjælland m.fl.";"1100";"København";"Østergade 1, 1100 København";"55.6801095";"12.5845924"
"Dansk e-Logistik C/O Nordic Spirits";"Sjælland m.fl.";"4690";"Dalby";"Herringvej 25, 4690 Dalby";"55.316385";"12.062206"
"Dansk e-logistik / att: Latron ApS";"Sjælland m.fl.";"2600";"Glostrup";"Naverland 33, 2600 Glostrup";"55.6787762";"12.3731124"
"Den Sidste Dråbe";"Sjælland m.fl.";"1360";"København K";"Torvehallerne Hal 2, 5D, 1360 København K";"55.6840493";"12.5694645"
"Holte Vinlager, Virum";"Sjælland m.fl.";"2830";"Virum";"Virum _Torv 9, 2830 Virum";"55.7950809";"12.4713345"
"Holte Vinlager, Frederiksberg Allé";"Sjælland m.fl.";"2000";"Frederiksberg C";"Frederiksberg Allé 28, 2000 Frederiksberg C";"55.6738977";"12.5409051"
"Bandholm Hotel";"Sjælland m.fl.";"4941";"Bandholm";"Havnegade 37, 4941 Bandholm";"54.836756";"11.4854155"
"Klosterkælderen";"Sjælland m.fl.";"4000";"Roskilde";"Store Gråbrødrestræde 23, 4000 Roskilde";"55.640487";"12.0879593"
"Rombo";"Onlinebutik";"2000";"Frederiksberg";"Falkoner Allé 46, 2000 Frederiksberg";"55.6830076";"12.5362102"
"Whisky.dk ApS";"Onlinebutik";"6093";"Sjølund";"Sjølund Gade 12, 6093 Sjølund";"55.4029108";"9.5293202"
"MIKKELLER APS / SCANGLOBAL";"Onlinebutik";"2630";"Taastrup";"HELGESHØJ ALLE 12, 2630 Taastrup";"55.6629545";"12.2929186"
"Water Of Life";"Onlinebutik";"8740";"Brædstrup";"Søndergade 27, 8740 Brædstrup";"55.9699749";"9.6109952"
"Kun Det Bedste";"Onlinebutik";"8600";"Silkeborg";"Priorsvej 21, 8600 Silkeborg";"56.201058";"9.570017"
"COOLSHOP";"Onlinebutik";"9300";"NØRRESUNDBY";"Bøgildsmindvej 3, 9300 NØRRESUNDBY";"57.087575";"9.970838"
"Drinky";"Onlinebutik";"8210";"Aarhus";"Haslegårdsvej 20, 8210 Aarhus";"56.171648";"10.160833"
"Holte Vinlager, Odense";"Fyn m.fl.";"5250";"Odense SV";"Dalumvej 59B, 5250 Odense SV";"55.369359";"10.371583"
"Rahbek&Læssøe Aps";"Fyn m.fl.";"5230";"Odense M";"Rahbeksvej 9, 5230 Odense M";"55.379773";"10.3929879"
"Flyblock.com ApS";"Fyn m.fl.";"5210";"Odense NV";"Siriusvænget 11, 5210 Odense NV";"55.412743";"10.318872"
"Vinspecialisten Middelfart ApS";"Fyn m.fl.";"5500";"Middelfart";"Østergade 7, 5500 Middelfart";"55.5045004";"9.736168"
"Easy Wine Odense ApS";"Fyn m.fl.";"5000";"Odense C";"Skibhusvej 52C3, 5000 Odense C";"55.4098387";"10.4033485"
