Produkt;Antal betalte;Totalpris for betalte excl. moms;Gns. stykpris for betalte;Antal til 0 DKK;Lager ultimo
Mondino Bio Amaro (key-account-pris);12;1140,00;95,00;0;318
amanero - Amanero Bitterlikør;6;1500,00;250,00;0;2
