"Navn";"Landsdel";"Postnummer";"By";"Adresse";"Latitude";"Longitude"
"Den Sidste Dråbe Spiritushandel Obs. Leveres på palle.";"Sjælland m.fl.";"1650";"København V";"Istedgade 83 st, 1650 København V";"55.6685294";"12.5514748"
"Den Sidste Dråbe Spiritushandel Obs. Leveres på palle. Åben tir-lør kl 12-18.";"Sjælland m.fl.";"2200";"København N";"Jægersborggade 10, kld tv, 2200 København N";"55.6920999";"12.5450304"
"Den Sidste Dråbe Spiritushandel";"Sjælland m.fl.";"2200";"København N";"Jægersborggade 10, kld tv, 2200 København N";"55.6920999";"12.5450304"
"Sprit & Co";"Sjælland m.fl.";"1914";"Frederiksberg";"Vodroffslund 7. st. th., 1914 Frederiksberg";"55.6778454";"12.5536988"
"Den Sidste Dråbe";"Sjælland m.fl.";"2200";"København n";"Linnésgade 14-18, 2200 København n";"55.6834108";"12.5701342"
"Nordic Spirits";"Sjælland m.fl.";"2820";"Gentofte";"Gyldenholm Allé 23, 2820 Gentofte";"55.744693";"12.550668"
"Holte Vinlager";"Sjælland m.fl.";"2840";"Holte";"Kongevejen 333, 2840 Holte";"55.813599";"12.4709131"
"Skjold Burne Ringsted";"Sjælland m.fl.";"4100";"Ringsted";"Nørregade 45, 4100 Ringsted";"55.4487706";"11.7889179"
"inco København Cash & Carry A/S";"Sjælland m.fl.";"1711";"København V";"Ingerslevsgade 42, 1711 København V";"55.6674304";"12.5633641"
"VINSLOTTET I GREVE A/S";"Sjælland m.fl.";"2670";"Greve";"Håndværkerbyen 42, 2670 Greve";"55.5890437";"12.2942364"
"The Bird and the Churchkey";"Sjælland m.fl.";"1202";"København K";"Gammel Strand 44, 1202 København K";"55.6776675";"12.5780019"
"Vermouth Søndag";"Sjælland m.fl.";"2200";"København";"Ahornsgade 6 kld mf, 2200 København";"55.692026";"12.560387"
"PureVodka";"Onlinebutik";"4100";"Ringsted";"Nordrupvej 28, 4100 Ringsted";"55.402362";"11.846034"
"Vinspecialisten Skagen";"Jylland";"9990";"Skagen";"Sct. Laurentiivej 43, 9990 Skagen";"57.7228786";"10.5911777"
"Vinoble Aarhus";"Jylland";"8000";"Aarhus C";"Guldsmedgade 20, 8000 Aarhus C";"56.1586715";"10.2076042"
"Livingzone";"Jylland";"9000";"Aalborg";"Enggaardsgade 27, 9000 Aalborg";"57.030269";"9.915863"
"Restaurant Tabu II ApS";"Jylland";"9000";"Aalborg";"Vesterå 5, 9000 Aalborg";"57.0499885";"9.9177272"
"Skotlander ApS";"Jylland";"9440";"Aabybro";"Damvej 54, 9440 Aabybro";"57.16603";"9.788848"
"Smagens Verden";"Fyn m.fl.";"5210";"Odense N";"Rugvang 36-40, 5210 Odense N";"55.4096854";"10.3385921"
