"Navn";"Landsdel";"Postnummer";"By";"Adresse";"Latitude";"Longitude"
"Den Sidste Dråbe Spiritushandel Obs. Leveres på palle. Åben tir-lør kl 12-18.";"Sjælland m.fl.";"2200";"København N";"Jægersborggade 10, kld tv, 2200 København N";"55.6920999";"12.5450304"
"Den Sidste Dråbe Spiritushandel Obs. Leveres på palle.";"Sjælland m.fl.";"1650";"København V";"Istedgade 83 st, 1650 København V";"55.6685294";"12.5514748"
"Bandholm Hotel";"Sjælland m.fl.";"4941";"Bandholm";"Havnegade 37, 4941 Bandholm";"54.836756";"11.4854155"
"Husted Vin";"Sjælland m.fl.";"1206";"København K";"Naboløs 6, 1206 København K";"55.677398";"12.5770704"
"Vild Med Vin ApS";"Jylland";"7500";"Holstebro";"Nybovej 34, Port 5, 7500 Holstebro";"56.3285447";"8.6304885"
